<?xml version="1.0" encoding="UTF-8" standalone="no"?>
<!DOCTYPE log SYSTEM "logger.dtd">
<log>
<record>
  <date>2019-12-30T23:27:45.334706Z</date>
  <millis>1577748465334</millis>
  <nanos>706000</nanos>
  <sequence>2</sequence>
  <logger>be.be.kdg.drankproject.model.drank</logger>
  <level>SEVERE</level>
  <class>be.be.kdg.drankproject.model.Drank</class>
  <method>setBarcode</method>
  <thread>1</thread>
  <message>Sprite's barcode () mag niet leeg zijn</message>
</record>
<record>
  <date>2019-12-30T23:27:45.339664Z</date>
  <millis>1577748465339</millis>
  <nanos>664000</nanos>
  <sequence>3</sequence>
  <logger>be.be.kdg.drankproject.model.drank</logger>
  <level>SEVERE</level>
  <class>be.be.kdg.drankproject.model.Drank</class>
  <method>setVerpaktPer</method>
  <thread>1</thread>
  <message>Almdudler's verpakt per hoeveelheid (-1) mag niet negatief zijn</message>
</record>
</log>
<?xml version="1.0" encoding="UTF-8" standalone="no"?>
<!DOCTYPE log SYSTEM "logger.dtd">
<log>
<record>
  <date>2019-12-30T23:29:31.708231Z</date>
  <millis>1577748571708</millis>
  <nanos>231000</nanos>
  <sequence>2</sequence>
  <logger>be.be.kdg.drankproject.model.drank</logger>
  <level>SEVERE</level>
  <class>be.be.kdg.drankproject.model.Drank</class>
  <method>setBarcode</method>
  <thread>1</thread>
  <message>Sprite's barcode () mag niet leeg zijn</message>
</record>
<record>
  <date>2019-12-30T23:29:31.713102Z</date>
  <millis>1577748571713</millis>
  <nanos>102000</nanos>
  <sequence>3</sequence>
  <logger>be.be.kdg.drankproject.model.drank</logger>
  <level>SEVERE</level>
  <class>be.be.kdg.drankproject.model.Drank</class>
  <method>setVerpaktPer</method>
  <thread>1</thread>
  <message>Almdudler's verpakt per hoeveelheid (-1) mag niet negatief zijn</message>
</record>
</log>
<?xml version="1.0" encoding="UTF-8" standalone="no"?>
<!DOCTYPE log SYSTEM "logger.dtd">
<log>
<record>
  <date>2019-12-30T23:29:38.589659Z</date>
  <millis>1577748578589</millis>
  <nanos>659000</nanos>
  <sequence>2</sequence>
  <logger>be.be.kdg.drankproject.model.drank</logger>
  <level>SEVERE</level>
  <class>be.be.kdg.drankproject.model.Drank</class>
  <method>setBarcode</method>
  <thread>1</thread>
  <message>Sprite's barcode () mag niet leeg zijn</message>
</record>
<record>
  <date>2019-12-30T23:29:38.593892Z</date>
  <millis>1577748578593</millis>
  <nanos>892000</nanos>
  <sequence>3</sequence>
  <logger>be.be.kdg.drankproject.model.drank</logger>
  <level>SEVERE</level>
  <class>be.be.kdg.drankproject.model.Drank</class>
  <method>setVerpaktPer</method>
  <thread>1</thread>
  <message>Almdudler's verpakt per hoeveelheid (-1) mag niet negatief zijn</message>
</record>
</log>
<?xml version="1.0" encoding="UTF-8" standalone="no"?>
<!DOCTYPE log SYSTEM "logger.dtd">
<log>
<record>
  <date>2019-12-30T23:30:16.530872Z</date>
  <millis>1577748616530</millis>
  <nanos>872000</nanos>
  <sequence>2</sequence>
  <logger>be.be.kdg.drankproject.model.drank</logger>
  <level>SEVERE</level>
  <class>be.be.kdg.drankproject.model.Drank</class>
  <method>setBarcode</method>
  <thread>1</thread>
  <message>Sprite's barcode () mag niet leeg zijn</message>
</record>
<record>
  <date>2019-12-30T23:30:16.533774Z</date>
  <millis>1577748616533</millis>
  <nanos>774000</nanos>
  <sequence>3</sequence>
  <logger>be.be.kdg.drankproject.model.drank</logger>
  <level>SEVERE</level>
  <class>be.be.kdg.drankproject.model.Drank</class>
  <method>setVerpaktPer</method>
  <thread>1</thread>
  <message>Almdudler's verpakt per hoeveelheid (-1) mag niet negatief zijn</message>
</record>
</log>
<?xml version="1.0" encoding="UTF-8" standalone="no"?>
<!DOCTYPE log SYSTEM "logger.dtd">
<log>
<record>
  <date>2019-12-31T12:36:54.243324Z</date>
  <millis>1577795814243</millis>
  <nanos>324000</nanos>
  <sequence>2</sequence>
  <logger>be.be.kdg.drankproject.model.drank</logger>
  <level>SEVERE</level>
  <class>be.be.kdg.drankproject.model.Drank</class>
  <method>setBarcode</method>
  <thread>1</thread>
  <message>Sprite's barcode () mag niet leeg zijn</message>
</record>
<record>
  <date>2019-12-31T12:36:54.247087Z</date>
  <millis>1577795814247</millis>
  <nanos>87000</nanos>
  <sequence>3</sequence>
  <logger>be.be.kdg.drankproject.model.drank</logger>
  <level>SEVERE</level>
  <class>be.be.kdg.drankproject.model.Drank</class>
  <method>setVerpaktPer</method>
  <thread>1</thread>
  <message>Almdudler's verpakt per hoeveelheid (-1) mag niet negatief zijn</message>
</record>
</log>
<?xml version="1.0" encoding="UTF-8" standalone="no"?>
<!DOCTYPE log SYSTEM "logger.dtd">
<log>
<record>
  <date>2019-12-31T12:37:37.754038Z</date>
  <millis>1577795857754</millis>
  <nanos>38000</nanos>
  <sequence>2</sequence>
  <logger>be.be.kdg.drankproject.model.drank</logger>
  <level>SEVERE</level>
  <class>be.be.kdg.drankproject.model.Drank</class>
  <method>setBarcode</method>
  <thread>1</thread>
  <message>Sprite's barcode () mag niet leeg zijn</message>
</record>
<record>
  <date>2019-12-31T12:37:37.758290Z</date>
  <millis>1577795857758</millis>
  <nanos>290000</nanos>
  <sequence>3</sequence>
  <logger>be.be.kdg.drankproject.model.drank</logger>
  <level>SEVERE</level>
  <class>be.be.kdg.drankproject.model.Drank</class>
  <method>setVerpaktPer</method>
  <thread>1</thread>
  <message>Almdudler's verpakt per hoeveelheid (-1) mag niet negatief zijn</message>
</record>
</log>
<?xml version="1.0" encoding="UTF-8" standalone="no"?>
<!DOCTYPE log SYSTEM "logger.dtd">
<log>
<record>
  <date>2020-01-03T14:55:01.869930Z</date>
  <millis>1578063301869</millis>
  <nanos>930000</nanos>
  <sequence>2</sequence>
  <logger>be.be.kdg.drankproject.model.drank</logger>
  <level>SEVERE</level>
  <class>be.be.kdg.drankproject.model.Drank</class>
  <method>setBarcode</method>
  <thread>1</thread>
  <message>Sprite's barcode () mag niet leeg zijn</message>
</record>
<record>
  <date>2020-01-03T14:55:01.872796Z</date>
  <millis>1578063301872</millis>
  <nanos>796000</nanos>
  <sequence>3</sequence>
  <logger>be.be.kdg.drankproject.model.drank</logger>
  <level>SEVERE</level>
  <class>be.be.kdg.drankproject.model.Drank</class>
  <method>setVerpaktPer</method>
  <thread>1</thread>
  <message>Almdudler's verpakt per hoeveelheid (-1) mag niet negatief zijn</message>
</record>
</log>
<?xml version="1.0" encoding="UTF-8" standalone="no"?>
<!DOCTYPE log SYSTEM "logger.dtd">
<log>
<record>
  <date>2020-01-03T14:55:27.944573Z</date>
  <millis>1578063327944</millis>
  <nanos>573000</nanos>
  <sequence>2</sequence>
  <logger>be.be.kdg.drankproject.model.drank</logger>
  <level>SEVERE</level>
  <class>be.be.kdg.drankproject.model.Drank</class>
  <method>setBarcode</method>
  <thread>1</thread>
  <message>Sprite's barcode () mag niet leeg zijn</message>
</record>
<record>
  <date>2020-01-03T14:55:27.946912Z</date>
  <millis>1578063327946</millis>
  <nanos>912000</nanos>
  <sequence>3</sequence>
  <logger>be.be.kdg.drankproject.model.drank</logger>
  <level>SEVERE</level>
  <class>be.be.kdg.drankproject.model.Drank</class>
  <method>setVerpaktPer</method>
  <thread>1</thread>
  <message>Almdudler's verpakt per hoeveelheid (-1) mag niet negatief zijn</message>
</record>
<record>
  <date>2020-01-03T14:55:27.974553Z</date>
  <millis>1578063327974</millis>
  <nanos>553000</nanos>
  <sequence>4</sequence>
  <logger>be.be.kdg.drankproject.model.drank</logger>
  <level>FINER</level>
  <class>be.be.kdg.drankproject.model.Dranken</class>
  <method>voegToe</method>
  <thread>1</thread>
  <message>Coca Cola       (2030) 	 USA          Frisdrank toegevoegd aan de lijst</message>
</record>
<record>
  <date>2020-01-03T14:55:27.976938Z</date>
  <millis>1578063327976</millis>
  <nanos>938000</nanos>
  <sequence>5</sequence>
  <logger>be.be.kdg.drankproject.model.drank</logger>
  <level>FINER</level>
  <class>be.be.kdg.drankproject.model.Dranken</class>
  <method>voegToe</method>
  <thread>1</thread>
  <message>                (1970) 	 USA          Frisdrank toegevoegd aan de lijst</message>
</record>
<record>
  <date>2020-01-03T14:55:27.978395Z</date>
  <millis>1578063327978</millis>
  <nanos>395000</nanos>
  <sequence>6</sequence>
  <logger>be.be.kdg.drankproject.model.drank</logger>
  <level>FINER</level>
  <class>be.be.kdg.drankproject.model.Dranken</class>
  <method>voegToe</method>
  <thread>1</thread>
  <message>Sprite          (1960) 	 Belgium      Frisdrank toegevoegd aan de lijst</message>
</record>
<record>
  <date>2020-01-03T14:55:27.979384Z</date>
  <millis>1578063327979</millis>
  <nanos>384000</nanos>
  <sequence>7</sequence>
  <logger>be.be.kdg.drankproject.model.drank</logger>
  <level>FINER</level>
  <class>be.be.kdg.drankproject.model.Dranken</class>
  <method>verwijder</method>
  <thread>1</thread>
  <message>java.util.TreeMap$KeyIterator@73ad2d6 verwijderd uit de lijst</message>
</record>
</log>
<?xml version="1.0" encoding="UTF-8" standalone="no"?>
<!DOCTYPE log SYSTEM "logger.dtd">
<log>
<record>
  <date>2020-01-03T14:55:59.430392Z</date>
  <millis>1578063359430</millis>
  <nanos>392000</nanos>
  <sequence>2</sequence>
  <logger>be.be.kdg.drankproject.model.drank</logger>
  <level>SEVERE</level>
  <class>be.be.kdg.drankproject.model.Drank</class>
  <method>setBarcode</method>
  <thread>1</thread>
  <message>Sprite's barcode () mag niet leeg zijn</message>
</record>
<record>
  <date>2020-01-03T14:55:59.433203Z</date>
  <millis>1578063359433</millis>
  <nanos>203000</nanos>
  <sequence>3</sequence>
  <logger>be.be.kdg.drankproject.model.drank</logger>
  <level>SEVERE</level>
  <class>be.be.kdg.drankproject.model.Drank</class>
  <method>setVerpaktPer</method>
  <thread>1</thread>
  <message>Almdudler's verpakt per hoeveelheid (-1) mag niet negatief zijn</message>
</record>
<record>
  <date>2020-01-03T14:55:59.460308Z</date>
  <millis>1578063359460</millis>
  <nanos>308000</nanos>
  <sequence>4</sequence>
  <logger>be.be.kdg.drankproject.model.drank</logger>
  <level>FINER</level>
  <class>be.be.kdg.drankproject.model.Dranken</class>
  <method>voegToe</method>
  <thread>1</thread>
  <message>Coca Cola       (2030) 	 USA          Frisdrank toegevoegd aan de lijst</message>
</record>
<record>
  <date>2020-01-03T14:55:59.461427Z</date>
  <millis>1578063359461</millis>
  <nanos>427000</nanos>
  <sequence>5</sequence>
  <logger>be.be.kdg.drankproject.model.drank</logger>
  <level>FINER</level>
  <class>be.be.kdg.drankproject.model.Dranken</class>
  <method>voegToe</method>
  <thread>1</thread>
  <message>                (1970) 	 USA          Frisdrank toegevoegd aan de lijst</message>
</record>
<record>
  <date>2020-01-03T14:55:59.462330Z</date>
  <millis>1578063359462</millis>
  <nanos>330000</nanos>
  <sequence>6</sequence>
  <logger>be.be.kdg.drankproject.model.drank</logger>
  <level>FINER</level>
  <class>be.be.kdg.drankproject.model.Dranken</class>
  <method>voegToe</method>
  <thread>1</thread>
  <message>Sprite          (1960) 	 Belgium      Frisdrank toegevoegd aan de lijst</message>
</record>
<record>
  <date>2020-01-03T14:55:59.463559Z</date>
  <millis>1578063359463</millis>
  <nanos>559000</nanos>
  <sequence>7</sequence>
  <logger>be.be.kdg.drankproject.model.drank</logger>
  <level>FINER</level>
  <class>be.be.kdg.drankproject.model.Dranken</class>
  <method>verwijder</method>
  <thread>1</thread>
  <message>java.util.TreeMap$KeyIterator@73ad2d6 verwijderd uit de lijst</message>
</record>
</log>
<?xml version="1.0" encoding="US-ASCII" standalone="no"?>
<!DOCTYPE log SYSTEM "logger.dtd">
<log>
<record>
  <date>2020-01-03T14:56:38.467235Z</date>
  <millis>1578063398467</millis>
  <nanos>235000</nanos>
  <sequence>2</sequence>
  <logger>be.be.kdg.drankproject.model.drank</logger>
  <level>SEVERE</level>
  <class>be.be.kdg.drankproject.model.Drank</class>
  <method>setBarcode</method>
  <thread>1</thread>
  <message>Sprite's barcode () mag niet leeg zijn</message>
</record>
<record>
  <date>2020-01-03T14:56:38.468855Z</date>
  <millis>1578063398468</millis>
  <nanos>855000</nanos>
  <sequence>3</sequence>
  <logger>be.be.kdg.drankproject.model.drank</logger>
  <level>SEVERE</level>
  <class>be.be.kdg.drankproject.model.Drank</class>
  <method>setVerpaktPer</method>
  <thread>1</thread>
  <message>Almdudler's verpakt per hoeveelheid (-1) mag niet negatief zijn</message>
</record>
<record>
  <date>2020-01-03T14:56:38.493321Z</date>
  <millis>1578063398493</millis>
  <nanos>321000</nanos>
  <sequence>4</sequence>
  <logger>be.be.kdg.drankproject.model.drank</logger>
  <level>FINER</level>
  <class>be.be.kdg.drankproject.model.Dranken</class>
  <method>voegToe</method>
  <thread>1</thread>
  <message>Coca Cola       (2030) 	 USA          Frisdrank toegevoegd aan de lijst</message>
</record>
<record>
  <date>2020-01-03T14:56:38.496009Z</date>
  <millis>1578063398496</millis>
  <nanos>9000</nanos>
  <sequence>5</sequence>
  <logger>be.be.kdg.drankproject.model.drank</logger>
  <level>FINER</level>
  <class>be.be.kdg.drankproject.model.Dranken</class>
  <method>voegToe</method>
  <thread>1</thread>
  <message>                (1970) 	 USA          Frisdrank toegevoegd aan de lijst</message>
</record>
<record>
  <date>2020-01-03T14:56:38.497769Z</date>
  <millis>1578063398497</millis>
  <nanos>769000</nanos>
  <sequence>6</sequence>
  <logger>be.be.kdg.drankproject.model.drank</logger>
  <level>FINER</level>
  <class>be.be.kdg.drankproject.model.Dranken</class>
  <method>voegToe</method>
  <thread>1</thread>
  <message>Sprite          (1960) 	 Belgium      Frisdrank toegevoegd aan de lijst</message>
</record>
<record>
  <date>2020-01-03T14:56:38.499088Z</date>
  <millis>1578063398499</millis>
  <nanos>88000</nanos>
  <sequence>7</sequence>
  <logger>be.be.kdg.drankproject.model.drank</logger>
  <level>FINER</level>
  <class>be.be.kdg.drankproject.model.Dranken</class>
  <method>verwijder</method>
  <thread>1</thread>
  <message>java.util.TreeMap$KeyIterator@1ce92674 verwijderd uit de lijst</message>
</record>
</log>
<?xml version="1.0" encoding="UTF-8" standalone="no"?>
<!DOCTYPE log SYSTEM "logger.dtd">
<log>
<record>
  <date>2020-01-03T15:26:37.624037Z</date>
  <millis>1578065197624</millis>
  <nanos>37000</nanos>
  <sequence>2</sequence>
  <logger>be.be.kdg.drankproject.model.drank</logger>
  <level>SEVERE</level>
  <class>be.be.kdg.drankproject.model.Drank</class>
  <method>setBarcode</method>
  <thread>1</thread>
  <message>Sprite's barcode () mag niet leeg zijn</message>
</record>
<record>
  <date>2020-01-03T15:26:37.626940Z</date>
  <millis>1578065197626</millis>
  <nanos>940000</nanos>
  <sequence>3</sequence>
  <logger>be.be.kdg.drankproject.model.drank</logger>
  <level>SEVERE</level>
  <class>be.be.kdg.drankproject.model.Drank</class>
  <method>setVerpaktPer</method>
  <thread>1</thread>
  <message>Almdudler's verpakt per hoeveelheid (-1) mag niet negatief zijn</message>
</record>
<record>
  <date>2020-01-03T15:26:37.665568Z</date>
  <millis>1578065197665</millis>
  <nanos>568000</nanos>
  <sequence>4</sequence>
  <logger>be.be.kdg.drankproject.model.drank</logger>
  <level>FINER</level>
  <class>be.be.kdg.drankproject.model.Dranken</class>
  <method>voegToe</method>
  <thread>1</thread>
  <message>Coca Cola       (2030) 	 USA          Frisdrank toegevoegd aan de lijst</message>
</record>
<record>
  <date>2020-01-03T15:26:37.668774Z</date>
  <millis>1578065197668</millis>
  <nanos>774000</nanos>
  <sequence>5</sequence>
  <logger>be.be.kdg.drankproject.model.drank</logger>
  <level>FINER</level>
  <class>be.be.kdg.drankproject.model.Dranken</class>
  <method>voegToe</method>
  <thread>1</thread>
  <message>                (1970) 	 USA          Frisdrank toegevoegd aan de lijst</message>
</record>
<record>
  <date>2020-01-03T15:26:37.670469Z</date>
  <millis>1578065197670</millis>
  <nanos>469000</nanos>
  <sequence>6</sequence>
  <logger>be.be.kdg.drankproject.model.drank</logger>
  <level>FINER</level>
  <class>be.be.kdg.drankproject.model.Dranken</class>
  <method>voegToe</method>
  <thread>1</thread>
  <message>Sprite          (1960) 	 Belgium      Frisdrank toegevoegd aan de lijst</message>
</record>
<record>
  <date>2020-01-03T15:26:37.671837Z</date>
  <millis>1578065197671</millis>
  <nanos>837000</nanos>
  <sequence>7</sequence>
  <logger>be.be.kdg.drankproject.model.drank</logger>
  <level>FINER</level>
  <class>be.be.kdg.drankproject.model.Dranken</class>
  <method>verwijder</method>
  <thread>1</thread>
  <message>java.util.TreeMap$KeyIterator@73ad2d6 verwijderd uit de lijst</message>
</record>
</log>
<?xml version="1.0" encoding="UTF-8" standalone="no"?>
<!DOCTYPE log SYSTEM "logger.dtd">
<log>
<record>
  <date>2020-01-03T15:28:29.195588Z</date>
  <millis>1578065309195</millis>
  <nanos>588000</nanos>
  <sequence>2</sequence>
  <logger>be.be.kdg.drankproject.model.drank</logger>
  <level>SEVERE</level>
  <class>be.be.kdg.drankproject.model.Drank</class>
  <method>setBarcode</method>
  <thread>1</thread>
  <message>Sprite's barcode () mag niet leeg zijn</message>
</record>
<record>
  <date>2020-01-03T15:28:29.197340Z</date>
  <millis>1578065309197</millis>
  <nanos>340000</nanos>
  <sequence>3</sequence>
  <logger>be.be.kdg.drankproject.model.drank</logger>
  <level>SEVERE</level>
  <class>be.be.kdg.drankproject.model.Drank</class>
  <method>setVerpaktPer</method>
  <thread>1</thread>
  <message>Almdudler's verpakt per hoeveelheid (-1) mag niet negatief zijn</message>
</record>
<record>
  <date>2020-01-03T15:28:29.221470Z</date>
  <millis>1578065309221</millis>
  <nanos>470000</nanos>
  <sequence>4</sequence>
  <logger>be.be.kdg.drankproject.model.drank</logger>
  <level>FINER</level>
  <class>be.be.kdg.drankproject.model.Dranken</class>
  <method>voegToe</method>
  <thread>1</thread>
  <message>Coca Cola       (2030) 	 USA          Frisdrank toegevoegd aan de lijst</message>
</record>
<record>
  <date>2020-01-03T15:28:29.222913Z</date>
  <millis>1578065309222</millis>
  <nanos>913000</nanos>
  <sequence>5</sequence>
  <logger>be.be.kdg.drankproject.model.drank</logger>
  <level>FINER</level>
  <class>be.be.kdg.drankproject.model.Dranken</class>
  <method>voegToe</method>
  <thread>1</thread>
  <message>                (1970) 	 USA          Frisdrank toegevoegd aan de lijst</message>
</record>
<record>
  <date>2020-01-03T15:28:29.224468Z</date>
  <millis>1578065309224</millis>
  <nanos>468000</nanos>
  <sequence>6</sequence>
  <logger>be.be.kdg.drankproject.model.drank</logger>
  <level>FINER</level>
  <class>be.be.kdg.drankproject.model.Dranken</class>
  <method>voegToe</method>
  <thread>1</thread>
  <message>Sprite          (1960) 	 Belgium      Frisdrank toegevoegd aan de lijst</message>
</record>
<record>
  <date>2020-01-03T15:28:29.225652Z</date>
  <millis>1578065309225</millis>
  <nanos>652000</nanos>
  <sequence>7</sequence>
  <logger>be.be.kdg.drankproject.model.drank</logger>
  <level>FINER</level>
  <class>be.be.kdg.drankproject.model.Dranken</class>
  <method>verwijder</method>
  <thread>1</thread>
  <message>java.util.TreeMap$KeyIterator@73ad2d6 verwijderd uit de lijst</message>
</record>
</log>
<?xml version="1.0" encoding="UTF-8" standalone="no"?>
<!DOCTYPE log SYSTEM "logger.dtd">
<log>
<record>
  <date>2020-01-03T15:29:14.015913Z</date>
  <millis>1578065354015</millis>
  <nanos>913000</nanos>
  <sequence>2</sequence>
  <logger>be.be.kdg.drankproject.model.drank</logger>
  <level>SEVERE</level>
  <class>be.be.kdg.drankproject.model.Drank</class>
  <method>setBarcode</method>
  <thread>1</thread>
  <message>Sprite's barcode () mag niet leeg zijn</message>
</record>
<record>
  <date>2020-01-03T15:29:14.020529Z</date>
  <millis>1578065354020</millis>
  <nanos>529000</nanos>
  <sequence>3</sequence>
  <logger>be.be.kdg.drankproject.model.drank</logger>
  <level>SEVERE</level>
  <class>be.be.kdg.drankproject.model.Drank</class>
  <method>setVerpaktPer</method>
  <thread>1</thread>
  <message>Almdudler's verpakt per hoeveelheid (-1) mag niet negatief zijn</message>
</record>
<record>
  <date>2020-01-03T15:29:14.052359Z</date>
  <millis>1578065354052</millis>
  <nanos>359000</nanos>
  <sequence>4</sequence>
  <logger>be.be.kdg.drankproject.model.drank</logger>
  <level>FINER</level>
  <class>be.be.kdg.drankproject.model.Dranken</class>
  <method>voegToe</method>
  <thread>1</thread>
  <message>Coca Cola       (2030) 	 USA          Frisdrank toegevoegd aan de lijst</message>
</record>
<record>
  <date>2020-01-03T15:29:14.053589Z</date>
  <millis>1578065354053</millis>
  <nanos>589000</nanos>
  <sequence>5</sequence>
  <logger>be.be.kdg.drankproject.model.drank</logger>
  <level>FINER</level>
  <class>be.be.kdg.drankproject.model.Dranken</class>
  <method>voegToe</method>
  <thread>1</thread>
  <message>                (1970) 	 USA          Frisdrank toegevoegd aan de lijst</message>
</record>
<record>
  <date>2020-01-03T15:29:14.055040Z</date>
  <millis>1578065354055</millis>
  <nanos>40000</nanos>
  <sequence>6</sequence>
  <logger>be.be.kdg.drankproject.model.drank</logger>
  <level>FINER</level>
  <class>be.be.kdg.drankproject.model.Dranken</class>
  <method>voegToe</method>
  <thread>1</thread>
  <message>Sprite          (1960) 	 Belgium      Frisdrank toegevoegd aan de lijst</message>
</record>
<record>
  <date>2020-01-03T15:29:14.056032Z</date>
  <millis>1578065354056</millis>
  <nanos>32000</nanos>
  <sequence>7</sequence>
  <logger>be.be.kdg.drankproject.model.drank</logger>
  <level>FINER</level>
  <class>be.be.kdg.drankproject.model.Dranken</class>
  <method>verwijder</method>
  <thread>1</thread>
  <message>java.util.TreeMap$KeyIterator@73ad2d6 verwijderd uit de lijst</message>
</record>
</log>
<?xml version="1.0" encoding="UTF-8" standalone="no"?>
<!DOCTYPE log SYSTEM "logger.dtd">
<log>
<record>
  <date>2020-01-03T19:59:11.917187Z</date>
  <millis>1578081551917</millis>
  <nanos>187000</nanos>
  <sequence>2</sequence>
  <logger>be.be.kdg.drankproject.model.drank</logger>
  <level>SEVERE</level>
  <class>be.be.kdg.drankproject.model.Drank</class>
  <method>setBarcode</method>
  <thread>1</thread>
  <message>Sprite's barcode () mag niet leeg zijn</message>
</record>
<record>
  <date>2020-01-03T19:59:11.919658Z</date>
  <millis>1578081551919</millis>
  <nanos>658000</nanos>
  <sequence>3</sequence>
  <logger>be.be.kdg.drankproject.model.drank</logger>
  <level>SEVERE</level>
  <class>be.be.kdg.drankproject.model.Drank</class>
  <method>setVerpaktPer</method>
  <thread>1</thread>
  <message>Almdudler's verpakt per hoeveelheid (-1) mag niet negatief zijn</message>
</record>
<record>
  <date>2020-01-03T19:59:11.950706Z</date>
  <millis>1578081551950</millis>
  <nanos>706000</nanos>
  <sequence>4</sequence>
  <logger>be.be.kdg.drankproject.model.drank</logger>
  <level>FINER</level>
  <class>be.be.kdg.drankproject.model.Dranken</class>
  <method>voegToe</method>
  <thread>1</thread>
  <message>Coca Cola       (2030) 	 USA          Frisdrank toegevoegd aan de lijst</message>
</record>
<record>
  <date>2020-01-03T19:59:11.952514Z</date>
  <millis>1578081551952</millis>
  <nanos>514000</nanos>
  <sequence>5</sequence>
  <logger>be.be.kdg.drankproject.model.drank</logger>
  <level>FINER</level>
  <class>be.be.kdg.drankproject.model.Dranken</class>
  <method>voegToe</method>
  <thread>1</thread>
  <message>                (1970) 	 USA          Frisdrank toegevoegd aan de lijst</message>
</record>
<record>
  <date>2020-01-03T19:59:11.954151Z</date>
  <millis>1578081551954</millis>
  <nanos>151000</nanos>
  <sequence>6</sequence>
  <logger>be.be.kdg.drankproject.model.drank</logger>
  <level>FINER</level>
  <class>be.be.kdg.drankproject.model.Dranken</class>
  <method>voegToe</method>
  <thread>1</thread>
  <message>Sprite          (1960) 	 Belgium      Frisdrank toegevoegd aan de lijst</message>
</record>
<record>
  <date>2020-01-03T19:59:11.955241Z</date>
  <millis>1578081551955</millis>
  <nanos>241000</nanos>
  <sequence>7</sequence>
  <logger>be.be.kdg.drankproject.model.drank</logger>
  <level>FINER</level>
  <class>be.be.kdg.drankproject.model.Dranken</class>
  <method>verwijder</method>
  <thread>1</thread>
  <message>java.util.TreeMap$KeyIterator@73ad2d6 verwijderd uit de lijst</message>
</record>
</log>
<?xml version="1.0" encoding="UTF-8" standalone="no"?>
<!DOCTYPE log SYSTEM "logger.dtd">
<log>
<record>
  <date>2020-01-03T20:00:26.707533Z</date>
  <millis>1578081626707</millis>
  <nanos>533000</nanos>
  <sequence>2</sequence>
  <logger>be.be.kdg.drankproject.model.drank</logger>
  <level>SEVERE</level>
  <class>be.be.kdg.drankproject.model.Drank</class>
  <method>setBarcode</method>
  <thread>1</thread>
  <message>Sprite's barcode () mag niet leeg zijn</message>
</record>
<record>
  <date>2020-01-03T20:00:26.708928Z</date>
  <millis>1578081626708</millis>
  <nanos>928000</nanos>
  <sequence>3</sequence>
  <logger>be.be.kdg.drankproject.model.drank</logger>
  <level>SEVERE</level>
  <class>be.be.kdg.drankproject.model.Drank</class>
  <method>setVerpaktPer</method>
  <thread>1</thread>
  <message>Almdudler's verpakt per hoeveelheid (-1) mag niet negatief zijn</message>
</record>
<record>
  <date>2020-01-03T20:00:26.789473Z</date>
  <millis>1578081626789</millis>
  <nanos>473000</nanos>
  <sequence>4</sequence>
  <logger>be.be.kdg.drankproject.model.drank</logger>
  <level>FINER</level>
  <class>be.be.kdg.drankproject.model.Dranken</class>
  <method>voegToe</method>
  <thread>1</thread>
  <message>Coca Cola       (2030) 	 USA          Frisdrank toegevoegd aan de lijst</message>
</record>
<record>
  <date>2020-01-03T20:00:26.792059Z</date>
  <millis>1578081626792</millis>
  <nanos>59000</nanos>
  <sequence>5</sequence>
  <logger>be.be.kdg.drankproject.model.drank</logger>
  <level>FINER</level>
  <class>be.be.kdg.drankproject.model.Dranken</class>
  <method>voegToe</method>
  <thread>1</thread>
  <message>                (1970) 	 USA          Frisdrank toegevoegd aan de lijst</message>
</record>
<record>
  <date>2020-01-03T20:00:26.798494Z</date>
  <millis>1578081626798</millis>
  <nanos>494000</nanos>
  <sequence>6</sequence>
  <logger>be.be.kdg.drankproject.model.drank</logger>
  <level>FINER</level>
  <class>be.be.kdg.drankproject.model.Dranken</class>
  <method>voegToe</method>
  <thread>1</thread>
  <message>Sprite          (1960) 	 Belgium      Frisdrank toegevoegd aan de lijst</message>
</record>
<record>
  <date>2020-01-03T20:00:26.801677Z</date>
  <millis>1578081626801</millis>
  <nanos>677000</nanos>
  <sequence>7</sequence>
  <logger>be.be.kdg.drankproject.model.drank</logger>
  <level>FINER</level>
  <class>be.be.kdg.drankproject.model.Dranken</class>
  <method>verwijder</method>
  <thread>1</thread>
  <message>java.util.TreeMap$KeyIterator@73ad2d6 verwijderd uit de lijst</message>
</record>
</log>
<?xml version="1.0" encoding="UTF-8" standalone="no"?>
<!DOCTYPE log SYSTEM "logger.dtd">
<log>
<record>
  <date>2020-01-03T20:16:19.462017Z</date>
  <millis>1578082579462</millis>
  <nanos>17000</nanos>
  <sequence>2</sequence>
  <logger>be.be.kdg.drankproject.model.drank</logger>
  <level>SEVERE</level>
  <class>be.be.kdg.drankproject.model.Drank</class>
  <method>setBarcode</method>
  <thread>1</thread>
  <message>Sprite's barcode () mag niet leeg zijn</message>
</record>
<record>
  <date>2020-01-03T20:16:19.464365Z</date>
  <millis>1578082579464</millis>
  <nanos>365000</nanos>
  <sequence>3</sequence>
  <logger>be.be.kdg.drankproject.model.drank</logger>
  <level>SEVERE</level>
  <class>be.be.kdg.drankproject.model.Drank</class>
  <method>setVerpaktPer</method>
  <thread>1</thread>
  <message>Almdudler's verpakt per hoeveelheid (-1) mag niet negatief zijn</message>
</record>
<record>
  <date>2020-01-03T20:16:19.498449Z</date>
  <millis>1578082579498</millis>
  <nanos>449000</nanos>
  <sequence>4</sequence>
  <logger>be.be.kdg.drankproject.model.drank</logger>
  <level>FINER</level>
  <class>be.be.kdg.drankproject.model.Dranken</class>
  <method>voegToe</method>
  <thread>1</thread>
  <message>Coca Cola       (2030) 	 USA          Frisdrank toegevoegd aan de lijst</message>
</record>
<record>
  <date>2020-01-03T20:16:19.499763Z</date>
  <millis>1578082579499</millis>
  <nanos>763000</nanos>
  <sequence>5</sequence>
  <logger>be.be.kdg.drankproject.model.drank</logger>
  <level>FINER</level>
  <class>be.be.kdg.drankproject.model.Dranken</class>
  <method>voegToe</method>
  <thread>1</thread>
  <message>                (1970) 	 USA          Frisdrank toegevoegd aan de lijst</message>
</record>
<record>
  <date>2020-01-03T20:16:19.501257Z</date>
  <millis>1578082579501</millis>
  <nanos>257000</nanos>
  <sequence>6</sequence>
  <logger>be.be.kdg.drankproject.model.drank</logger>
  <level>FINER</level>
  <class>be.be.kdg.drankproject.model.Dranken</class>
  <method>voegToe</method>
  <thread>1</thread>
  <message>Sprite          (1960) 	 Belgium      Frisdrank toegevoegd aan de lijst</message>
</record>
<record>
  <date>2020-01-03T20:16:19.502292Z</date>
  <millis>1578082579502</millis>
  <nanos>292000</nanos>
  <sequence>7</sequence>
  <logger>be.be.kdg.drankproject.model.drank</logger>
  <level>FINER</level>
  <class>be.be.kdg.drankproject.model.Dranken</class>
  <method>verwijder</method>
  <thread>1</thread>
  <message>java.util.TreeMap$KeyIterator@73ad2d6 verwijderd uit de lijst</message>
</record>
</log>
<?xml version="1.0" encoding="UTF-8" standalone="no"?>
<!DOCTYPE log SYSTEM "logger.dtd">
<log>
<record>
  <date>2020-01-03T20:20:52.295343Z</date>
  <millis>1578082852295</millis>
  <nanos>343000</nanos>
  <sequence>2</sequence>
  <logger>be.be.kdg.drankproject.model.drank</logger>
  <level>SEVERE</level>
  <class>be.be.kdg.drankproject.model.Drank</class>
  <method>setBarcode</method>
  <thread>1</thread>
  <message>Sprite's barcode () mag niet leeg zijn</message>
</record>
<record>
  <date>2020-01-03T20:20:52.299960Z</date>
  <millis>1578082852299</millis>
  <nanos>960000</nanos>
  <sequence>3</sequence>
  <logger>be.be.kdg.drankproject.model.drank</logger>
  <level>SEVERE</level>
  <class>be.be.kdg.drankproject.model.Drank</class>
  <method>setVerpaktPer</method>
  <thread>1</thread>
  <message>Almdudler's verpakt per hoeveelheid (-1) mag niet negatief zijn</message>
</record>
<record>
  <date>2020-01-03T20:20:52.357735Z</date>
  <millis>1578082852357</millis>
  <nanos>735000</nanos>
  <sequence>4</sequence>
  <logger>be.be.kdg.drankproject.model.drank</logger>
  <level>FINER</level>
  <class>be.be.kdg.drankproject.model.Dranken</class>
  <method>voegToe</method>
  <thread>1</thread>
  <message>Coca Cola       (2030) 	 USA          Frisdrank toegevoegd aan de lijst</message>
</record>
<record>
  <date>2020-01-03T20:20:52.359097Z</date>
  <millis>1578082852359</millis>
  <nanos>97000</nanos>
  <sequence>5</sequence>
  <logger>be.be.kdg.drankproject.model.drank</logger>
  <level>FINER</level>
  <class>be.be.kdg.drankproject.model.Dranken</class>
  <method>voegToe</method>
  <thread>1</thread>
  <message>                (1970) 	 USA          Frisdrank toegevoegd aan de lijst</message>
</record>
<record>
  <date>2020-01-03T20:20:52.360421Z</date>
  <millis>1578082852360</millis>
  <nanos>421000</nanos>
  <sequence>6</sequence>
  <logger>be.be.kdg.drankproject.model.drank</logger>
  <level>FINER</level>
  <class>be.be.kdg.drankproject.model.Dranken</class>
  <method>voegToe</method>
  <thread>1</thread>
  <message>Sprite          (1960) 	 Belgium      Frisdrank toegevoegd aan de lijst</message>
</record>
<record>
  <date>2020-01-03T20:20:52.361862Z</date>
  <millis>1578082852361</millis>
  <nanos>862000</nanos>
  <sequence>7</sequence>
  <logger>be.be.kdg.drankproject.model.drank</logger>
  <level>FINER</level>
  <class>be.be.kdg.drankproject.model.Dranken</class>
  <method>verwijder</method>
  <thread>1</thread>
  <message>java.util.TreeMap$KeyIterator@73ad2d6 verwijderd uit de lijst</message>
</record>
</log>
<?xml version="1.0" encoding="UTF-8" standalone="no"?>
<!DOCTYPE log SYSTEM "logger.dtd">
<log>
<record>
  <date>2020-01-03T20:21:32.829563Z</date>
  <millis>1578082892829</millis>
  <nanos>563000</nanos>
  <sequence>2</sequence>
  <logger>be.be.kdg.drankproject.model.drank</logger>
  <level>SEVERE</level>
  <class>be.be.kdg.drankproject.model.Drank</class>
  <method>setBarcode</method>
  <thread>1</thread>
  <message>Sprite's barcode () mag niet leeg zijn</message>
</record>
<record>
  <date>2020-01-03T20:21:32.831909Z</date>
  <millis>1578082892831</millis>
  <nanos>909000</nanos>
  <sequence>3</sequence>
  <logger>be.be.kdg.drankproject.model.drank</logger>
  <level>SEVERE</level>
  <class>be.be.kdg.drankproject.model.Drank</class>
  <method>setVerpaktPer</method>
  <thread>1</thread>
  <message>Almdudler's verpakt per hoeveelheid (-1) mag niet negatief zijn</message>
</record>
<record>
  <date>2020-01-03T20:21:32.859995Z</date>
  <millis>1578082892859</millis>
  <nanos>995000</nanos>
  <sequence>4</sequence>
  <logger>be.be.kdg.drankproject.model.drank</logger>
  <level>FINER</level>
  <class>be.be.kdg.drankproject.model.Dranken</class>
  <method>voegToe</method>
  <thread>1</thread>
  <message>Coca Cola       (2030) 	 USA          Frisdrank toegevoegd aan de lijst</message>
</record>
<record>
  <date>2020-01-03T20:21:32.861450Z</date>
  <millis>1578082892861</millis>
  <nanos>450000</nanos>
  <sequence>5</sequence>
  <logger>be.be.kdg.drankproject.model.drank</logger>
  <level>FINER</level>
  <class>be.be.kdg.drankproject.model.Dranken</class>
  <method>voegToe</method>
  <thread>1</thread>
  <message>                (1970) 	 USA          Frisdrank toegevoegd aan de lijst</message>
</record>
<record>
  <date>2020-01-03T20:21:32.863262Z</date>
  <millis>1578082892863</millis>
  <nanos>262000</nanos>
  <sequence>6</sequence>
  <logger>be.be.kdg.drankproject.model.drank</logger>
  <level>FINER</level>
  <class>be.be.kdg.drankproject.model.Dranken</class>
  <method>voegToe</method>
  <thread>1</thread>
  <message>Sprite          (1960) 	 Belgium      Frisdrank toegevoegd aan de lijst</message>
</record>
<record>
  <date>2020-01-03T20:21:32.864585Z</date>
  <millis>1578082892864</millis>
  <nanos>585000</nanos>
  <sequence>7</sequence>
  <logger>be.be.kdg.drankproject.model.drank</logger>
  <level>FINER</level>
  <class>be.be.kdg.drankproject.model.Dranken</class>
  <method>verwijder</method>
  <thread>1</thread>
  <message>java.util.TreeMap$KeyIterator@73ad2d6 verwijderd uit de lijst</message>
</record>
</log>
<?xml version="1.0" encoding="UTF-8" standalone="no"?>
<!DOCTYPE log SYSTEM "logger.dtd">
<log>
<record>
  <date>2020-01-03T20:22:24.026996Z</date>
  <millis>1578082944026</millis>
  <nanos>996000</nanos>
  <sequence>2</sequence>
  <logger>be.be.kdg.drankproject.model.drank</logger>
  <level>SEVERE</level>
  <class>be.be.kdg.drankproject.model.Drank</class>
  <method>setBarcode</method>
  <thread>1</thread>
  <message>Sprite's barcode () mag niet leeg zijn</message>
</record>
<record>
  <date>2020-01-03T20:22:24.028688Z</date>
  <millis>1578082944028</millis>
  <nanos>688000</nanos>
  <sequence>3</sequence>
  <logger>be.be.kdg.drankproject.model.drank</logger>
  <level>SEVERE</level>
  <class>be.be.kdg.drankproject.model.Drank</class>
  <method>setVerpaktPer</method>
  <thread>1</thread>
  <message>Almdudler's verpakt per hoeveelheid (-1) mag niet negatief zijn</message>
</record>
<record>
  <date>2020-01-03T20:22:24.074769Z</date>
  <millis>1578082944074</millis>
  <nanos>769000</nanos>
  <sequence>4</sequence>
  <logger>be.be.kdg.drankproject.model.drank</logger>
  <level>FINER</level>
  <class>be.be.kdg.drankproject.model.Dranken</class>
  <method>voegToe</method>
  <thread>1</thread>
  <message>Coca Cola       (2030) 	 USA          Frisdrank toegevoegd aan de lijst</message>
</record>
<record>
  <date>2020-01-03T20:22:24.077505Z</date>
  <millis>1578082944077</millis>
  <nanos>505000</nanos>
  <sequence>5</sequence>
  <logger>be.be.kdg.drankproject.model.drank</logger>
  <level>FINER</level>
  <class>be.be.kdg.drankproject.model.Dranken</class>
  <method>voegToe</method>
  <thread>1</thread>
  <message>                (1970) 	 USA          Frisdrank toegevoegd aan de lijst</message>
</record>
<record>
  <date>2020-01-03T20:22:24.083697Z</date>
  <millis>1578082944083</millis>
  <nanos>697000</nanos>
  <sequence>6</sequence>
  <logger>be.be.kdg.drankproject.model.drank</logger>
  <level>FINER</level>
  <class>be.be.kdg.drankproject.model.Dranken</class>
  <method>voegToe</method>
  <thread>1</thread>
  <message>Sprite          (1960) 	 Belgium      Frisdrank toegevoegd aan de lijst</message>
</record>
<record>
  <date>2020-01-03T20:22:24.085281Z</date>
  <millis>1578082944085</millis>
  <nanos>281000</nanos>
  <sequence>7</sequence>
  <logger>be.be.kdg.drankproject.model.drank</logger>
  <level>FINER</level>
  <class>be.be.kdg.drankproject.model.Dranken</class>
  <method>verwijder</method>
  <thread>1</thread>
  <message>java.util.TreeMap$KeyIterator@73ad2d6 verwijderd uit de lijst</message>
</record>
</log>
<?xml version="1.0" encoding="UTF-8" standalone="no"?>
<!DOCTYPE log SYSTEM "logger.dtd">
<log>
<record>
  <date>2020-01-03T20:23:35.623512Z</date>
  <millis>1578083015623</millis>
  <nanos>512000</nanos>
  <sequence>2</sequence>
  <logger>be.be.kdg.drankproject.model.drank</logger>
  <level>SEVERE</level>
  <class>be.be.kdg.drankproject.model.Drank</class>
  <method>setBarcode</method>
  <thread>1</thread>
  <message>Sprite's barcode () mag niet leeg zijn</message>
</record>
<record>
  <date>2020-01-03T20:23:35.625581Z</date>
  <millis>1578083015625</millis>
  <nanos>581000</nanos>
  <sequence>3</sequence>
  <logger>be.be.kdg.drankproject.model.drank</logger>
  <level>SEVERE</level>
  <class>be.be.kdg.drankproject.model.Drank</class>
  <method>setVerpaktPer</method>
  <thread>1</thread>
  <message>Almdudler's verpakt per hoeveelheid (-1) mag niet negatief zijn</message>
</record>
<record>
  <date>2020-01-03T20:23:35.657980Z</date>
  <millis>1578083015657</millis>
  <nanos>980000</nanos>
  <sequence>4</sequence>
  <logger>be.be.kdg.drankproject.model.drank</logger>
  <level>FINER</level>
  <class>be.be.kdg.drankproject.model.Dranken</class>
  <method>voegToe</method>
  <thread>1</thread>
  <message>Coca Cola       (2030) 	 USA          Frisdrank toegevoegd aan de lijst</message>
</record>
<record>
  <date>2020-01-03T20:23:35.659450Z</date>
  <millis>1578083015659</millis>
  <nanos>450000</nanos>
  <sequence>5</sequence>
  <logger>be.be.kdg.drankproject.model.drank</logger>
  <level>FINER</level>
  <class>be.be.kdg.drankproject.model.Dranken</class>
  <method>voegToe</method>
  <thread>1</thread>
  <message>                (1970) 	 USA          Frisdrank toegevoegd aan de lijst</message>
</record>
<record>
  <date>2020-01-03T20:23:35.661225Z</date>
  <millis>1578083015661</millis>
  <nanos>225000</nanos>
  <sequence>6</sequence>
  <logger>be.be.kdg.drankproject.model.drank</logger>
  <level>FINER</level>
  <class>be.be.kdg.drankproject.model.Dranken</class>
  <method>voegToe</method>
  <thread>1</thread>
  <message>Sprite          (1960) 	 Belgium      Frisdrank toegevoegd aan de lijst</message>
</record>
<record>
  <date>2020-01-03T20:23:35.662388Z</date>
  <millis>1578083015662</millis>
  <nanos>388000</nanos>
  <sequence>7</sequence>
  <logger>be.be.kdg.drankproject.model.drank</logger>
  <level>FINER</level>
  <class>be.be.kdg.drankproject.model.Dranken</class>
  <method>verwijder</method>
  <thread>1</thread>
  <message>java.util.TreeMap$KeyIterator@73ad2d6 verwijderd uit de lijst</message>
</record>
</log>
<?xml version="1.0" encoding="UTF-8" standalone="no"?>
<!DOCTYPE log SYSTEM "logger.dtd">
<log>
<record>
  <date>2020-01-03T20:42:17.699946Z</date>
  <millis>1578084137699</millis>
  <nanos>946000</nanos>
  <sequence>2</sequence>
  <logger>be.be.kdg.drankproject.model.drank</logger>
  <level>SEVERE</level>
  <class>be.be.kdg.drankproject.model.Drank</class>
  <method>setBarcode</method>
  <thread>1</thread>
  <message>Sprite's barcode () mag niet leeg zijn</message>
</record>
<record>
  <date>2020-01-03T20:42:17.702304Z</date>
  <millis>1578084137702</millis>
  <nanos>304000</nanos>
  <sequence>3</sequence>
  <logger>be.be.kdg.drankproject.model.drank</logger>
  <level>SEVERE</level>
  <class>be.be.kdg.drankproject.model.Drank</class>
  <method>setVerpaktPer</method>
  <thread>1</thread>
  <message>Almdudler's verpakt per hoeveelheid (-1) mag niet negatief zijn</message>
</record>
<record>
  <date>2020-01-03T20:42:17.736198Z</date>
  <millis>1578084137736</millis>
  <nanos>198000</nanos>
  <sequence>4</sequence>
  <logger>be.be.kdg.drankproject.model.drank</logger>
  <level>FINER</level>
  <class>be.be.kdg.drankproject.model.Dranken</class>
  <method>voegToe</method>
  <thread>1</thread>
  <message>Coca Cola       (2030) 	 USA          Frisdrank toegevoegd aan de lijst</message>
</record>
<record>
  <date>2020-01-03T20:42:17.738635Z</date>
  <millis>1578084137738</millis>
  <nanos>635000</nanos>
  <sequence>5</sequence>
  <logger>be.be.kdg.drankproject.model.drank</logger>
  <level>FINER</level>
  <class>be.be.kdg.drankproject.model.Dranken</class>
  <method>voegToe</method>
  <thread>1</thread>
  <message>                (1970) 	 USA          Frisdrank toegevoegd aan de lijst</message>
</record>
<record>
  <date>2020-01-03T20:42:17.740117Z</date>
  <millis>1578084137740</millis>
  <nanos>117000</nanos>
  <sequence>6</sequence>
  <logger>be.be.kdg.drankproject.model.drank</logger>
  <level>FINER</level>
  <class>be.be.kdg.drankproject.model.Dranken</class>
  <method>voegToe</method>
  <thread>1</thread>
  <message>Sprite          (1960) 	 Belgium      Frisdrank toegevoegd aan de lijst</message>
</record>
<record>
  <date>2020-01-03T20:42:17.741223Z</date>
  <millis>1578084137741</millis>
  <nanos>223000</nanos>
  <sequence>7</sequence>
  <logger>be.be.kdg.drankproject.model.drank</logger>
  <level>FINER</level>
  <class>be.be.kdg.drankproject.model.Dranken</class>
  <method>verwijder</method>
  <thread>1</thread>
  <message>java.util.TreeMap$KeyIterator@73ad2d6 verwijderd uit de lijst</message>
</record>
</log>
<?xml version="1.0" encoding="UTF-8" standalone="no"?>
<!DOCTYPE log SYSTEM "logger.dtd">
<log>
<record>
  <date>2020-01-03T20:44:34.249069Z</date>
  <millis>1578084274249</millis>
  <nanos>69000</nanos>
  <sequence>2</sequence>
  <logger>be.be.kdg.drankproject.model.drank</logger>
  <level>SEVERE</level>
  <class>be.be.kdg.drankproject.model.Drank</class>
  <method>setBarcode</method>
  <thread>1</thread>
  <message>Sprite's barcode () mag niet leeg zijn</message>
</record>
<record>
  <date>2020-01-03T20:44:34.256135Z</date>
  <millis>1578084274256</millis>
  <nanos>135000</nanos>
  <sequence>3</sequence>
  <logger>be.be.kdg.drankproject.model.drank</logger>
  <level>SEVERE</level>
  <class>be.be.kdg.drankproject.model.Drank</class>
  <method>setVerpaktPer</method>
  <thread>1</thread>
  <message>Almdudler's verpakt per hoeveelheid (-1) mag niet negatief zijn</message>
</record>
<record>
  <date>2020-01-03T20:44:34.304207Z</date>
  <millis>1578084274304</millis>
  <nanos>207000</nanos>
  <sequence>4</sequence>
  <logger>be.be.kdg.drankproject.model.drank</logger>
  <level>FINER</level>
  <class>be.be.kdg.drankproject.model.Dranken</class>
  <method>voegToe</method>
  <thread>1</thread>
  <message>Coca Cola       (2030) 	 USA          Frisdrank toegevoegd aan de lijst</message>
</record>
<record>
  <date>2020-01-03T20:44:34.306632Z</date>
  <millis>1578084274306</millis>
  <nanos>632000</nanos>
  <sequence>5</sequence>
  <logger>be.be.kdg.drankproject.model.drank</logger>
  <level>FINER</level>
  <class>be.be.kdg.drankproject.model.Dranken</class>
  <method>voegToe</method>
  <thread>1</thread>
  <message>                (1970) 	 USA          Frisdrank toegevoegd aan de lijst</message>
</record>
<record>
  <date>2020-01-03T20:44:34.307999Z</date>
  <millis>1578084274307</millis>
  <nanos>999000</nanos>
  <sequence>6</sequence>
  <logger>be.be.kdg.drankproject.model.drank</logger>
  <level>FINER</level>
  <class>be.be.kdg.drankproject.model.Dranken</class>
  <method>voegToe</method>
  <thread>1</thread>
  <message>Sprite          (1960) 	 Belgium      Frisdrank toegevoegd aan de lijst</message>
</record>
<record>
  <date>2020-01-03T20:44:34.309872Z</date>
  <millis>1578084274309</millis>
  <nanos>872000</nanos>
  <sequence>7</sequence>
  <logger>be.be.kdg.drankproject.model.drank</logger>
  <level>FINER</level>
  <class>be.be.kdg.drankproject.model.Dranken</class>
  <method>verwijder</method>
  <thread>1</thread>
  <message>java.util.TreeMap$KeyIterator@73ad2d6 verwijderd uit de lijst</message>
</record>
</log>
<?xml version="1.0" encoding="UTF-8" standalone="no"?>
<!DOCTYPE log SYSTEM "logger.dtd">
<log>
<record>
  <date>2020-01-03T20:52:01.760528Z</date>
  <millis>1578084721760</millis>
  <nanos>528000</nanos>
  <sequence>2</sequence>
  <logger>be.be.kdg.drankproject.model.drank</logger>
  <level>SEVERE</level>
  <class>be.be.kdg.drankproject.model.Drank</class>
  <method>setBarcode</method>
  <thread>1</thread>
  <message>Sprite's barcode () mag niet leeg zijn</message>
</record>
<record>
  <date>2020-01-03T20:52:01.762671Z</date>
  <millis>1578084721762</millis>
  <nanos>671000</nanos>
  <sequence>3</sequence>
  <logger>be.be.kdg.drankproject.model.drank</logger>
  <level>SEVERE</level>
  <class>be.be.kdg.drankproject.model.Drank</class>
  <method>setVerpaktPer</method>
  <thread>1</thread>
  <message>Almdudler's verpakt per hoeveelheid (-1) mag niet negatief zijn</message>
</record>
<record>
  <date>2020-01-03T20:52:01.792562Z</date>
  <millis>1578084721792</millis>
  <nanos>562000</nanos>
  <sequence>4</sequence>
  <logger>be.be.kdg.drankproject.model.drank</logger>
  <level>FINER</level>
  <class>be.be.kdg.drankproject.model.Dranken</class>
  <method>voegToe</method>
  <thread>1</thread>
  <message>Coca Cola       (2030) 	 USA          Frisdrank toegevoegd aan de lijst</message>
</record>
<record>
  <date>2020-01-03T20:52:01.794191Z</date>
  <millis>1578084721794</millis>
  <nanos>191000</nanos>
  <sequence>5</sequence>
  <logger>be.be.kdg.drankproject.model.drank</logger>
  <level>FINER</level>
  <class>be.be.kdg.drankproject.model.Dranken</class>
  <method>voegToe</method>
  <thread>1</thread>
  <message>                (1970) 	 USA          Frisdrank toegevoegd aan de lijst</message>
</record>
<record>
  <date>2020-01-03T20:52:01.795316Z</date>
  <millis>1578084721795</millis>
  <nanos>316000</nanos>
  <sequence>6</sequence>
  <logger>be.be.kdg.drankproject.model.drank</logger>
  <level>FINER</level>
  <class>be.be.kdg.drankproject.model.Dranken</class>
  <method>voegToe</method>
  <thread>1</thread>
  <message>Sprite          (1960) 	 Belgium      Frisdrank toegevoegd aan de lijst</message>
</record>
<record>
  <date>2020-01-03T20:52:01.797227Z</date>
  <millis>1578084721797</millis>
  <nanos>227000</nanos>
  <sequence>7</sequence>
  <logger>be.be.kdg.drankproject.model.drank</logger>
  <level>FINER</level>
  <class>be.be.kdg.drankproject.model.Dranken</class>
  <method>verwijder</method>
  <thread>1</thread>
  <message>java.util.TreeMap$KeyIterator@73ad2d6 verwijderd uit de lijst</message>
</record>
</log>
<?xml version="1.0" encoding="UTF-8" standalone="no"?>
<!DOCTYPE log SYSTEM "logger.dtd">
<log>
<record>
  <date>2020-01-03T20:52:33.120616Z</date>
  <millis>1578084753120</millis>
  <nanos>616000</nanos>
  <sequence>2</sequence>
  <logger>be.be.kdg.drankproject.model.drank</logger>
  <level>SEVERE</level>
  <class>be.be.kdg.drankproject.model.Drank</class>
  <method>setBarcode</method>
  <thread>1</thread>
  <message>Sprite's barcode () mag niet leeg zijn</message>
</record>
<record>
  <date>2020-01-03T20:52:33.131088Z</date>
  <millis>1578084753131</millis>
  <nanos>88000</nanos>
  <sequence>3</sequence>
  <logger>be.be.kdg.drankproject.model.drank</logger>
  <level>SEVERE</level>
  <class>be.be.kdg.drankproject.model.Drank</class>
  <method>setVerpaktPer</method>
  <thread>1</thread>
  <message>Almdudler's verpakt per hoeveelheid (-1) mag niet negatief zijn</message>
</record>
<record>
  <date>2020-01-03T20:52:33.182933Z</date>
  <millis>1578084753182</millis>
  <nanos>933000</nanos>
  <sequence>4</sequence>
  <logger>be.be.kdg.drankproject.model.drank</logger>
  <level>FINER</level>
  <class>be.be.kdg.drankproject.model.Dranken</class>
  <method>voegToe</method>
  <thread>1</thread>
  <message>Coca Cola       (2030) 	 USA          Frisdrank toegevoegd aan de lijst</message>
</record>
<record>
  <date>2020-01-03T20:52:33.185140Z</date>
  <millis>1578084753185</millis>
  <nanos>140000</nanos>
  <sequence>5</sequence>
  <logger>be.be.kdg.drankproject.model.drank</logger>
  <level>FINER</level>
  <class>be.be.kdg.drankproject.model.Dranken</class>
  <method>voegToe</method>
  <thread>1</thread>
  <message>                (1970) 	 USA          Frisdrank toegevoegd aan de lijst</message>
</record>
<record>
  <date>2020-01-03T20:52:33.188888Z</date>
  <millis>1578084753188</millis>
  <nanos>888000</nanos>
  <sequence>6</sequence>
  <logger>be.be.kdg.drankproject.model.drank</logger>
  <level>FINER</level>
  <class>be.be.kdg.drankproject.model.Dranken</class>
  <method>voegToe</method>
  <thread>1</thread>
  <message>Sprite          (1960) 	 Belgium      Frisdrank toegevoegd aan de lijst</message>
</record>
<record>
  <date>2020-01-03T20:52:33.191041Z</date>
  <millis>1578084753191</millis>
  <nanos>41000</nanos>
  <sequence>7</sequence>
  <logger>be.be.kdg.drankproject.model.drank</logger>
  <level>FINER</level>
  <class>be.be.kdg.drankproject.model.Dranken</class>
  <method>verwijder</method>
  <thread>1</thread>
  <message>java.util.TreeMap$KeyIterator@73ad2d6 verwijderd uit de lijst</message>
</record>
</log>
<?xml version="1.0" encoding="UTF-8" standalone="no"?>
<!DOCTYPE log SYSTEM "logger.dtd">
<log>
<record>
  <date>2020-01-03T20:54:50.134951Z</date>
  <millis>1578084890134</millis>
  <nanos>951000</nanos>
  <sequence>2</sequence>
  <logger>be.be.kdg.drankproject.model.drank</logger>
  <level>SEVERE</level>
  <class>be.be.kdg.drankproject.model.Drank</class>
  <method>setBarcode</method>
  <thread>1</thread>
  <message>Sprite's barcode () mag niet leeg zijn</message>
</record>
<record>
  <date>2020-01-03T20:54:50.136351Z</date>
  <millis>1578084890136</millis>
  <nanos>351000</nanos>
  <sequence>3</sequence>
  <logger>be.be.kdg.drankproject.model.drank</logger>
  <level>SEVERE</level>
  <class>be.be.kdg.drankproject.model.Drank</class>
  <method>setVerpaktPer</method>
  <thread>1</thread>
  <message>Almdudler's verpakt per hoeveelheid (-1) mag niet negatief zijn</message>
</record>
<record>
  <date>2020-01-03T20:54:50.163344Z</date>
  <millis>1578084890163</millis>
  <nanos>344000</nanos>
  <sequence>4</sequence>
  <logger>be.be.kdg.drankproject.model.drank</logger>
  <level>FINER</level>
  <class>be.be.kdg.drankproject.model.Dranken</class>
  <method>voegToe</method>
  <thread>1</thread>
  <message>Coca Cola       (2030) 	 USA          Frisdrank toegevoegd aan de lijst</message>
</record>
<record>
  <date>2020-01-03T20:54:50.164404Z</date>
  <millis>1578084890164</millis>
  <nanos>404000</nanos>
  <sequence>5</sequence>
  <logger>be.be.kdg.drankproject.model.drank</logger>
  <level>FINER</level>
  <class>be.be.kdg.drankproject.model.Dranken</class>
  <method>voegToe</method>
  <thread>1</thread>
  <message>                (1970) 	 USA          Frisdrank toegevoegd aan de lijst</message>
</record>
<record>
  <date>2020-01-03T20:54:50.165273Z</date>
  <millis>1578084890165</millis>
  <nanos>273000</nanos>
  <sequence>6</sequence>
  <logger>be.be.kdg.drankproject.model.drank</logger>
  <level>FINER</level>
  <class>be.be.kdg.drankproject.model.Dranken</class>
  <method>voegToe</method>
  <thread>1</thread>
  <message>Sprite          (1960) 	 Belgium      Frisdrank toegevoegd aan de lijst</message>
</record>
<record>
  <date>2020-01-03T20:54:50.166039Z</date>
  <millis>1578084890166</millis>
  <nanos>39000</nanos>
  <sequence>7</sequence>
  <logger>be.be.kdg.drankproject.model.drank</logger>
  <level>FINER</level>
  <class>be.be.kdg.drankproject.model.Dranken</class>
  <method>verwijder</method>
  <thread>1</thread>
  <message>java.util.TreeMap$KeyIterator@73ad2d6 verwijderd uit de lijst</message>
</record>
</log>
<?xml version="1.0" encoding="UTF-8" standalone="no"?>
<!DOCTYPE log SYSTEM "logger.dtd">
<log>
<record>
  <date>2020-01-03T21:04:56.140783Z</date>
  <millis>1578085496140</millis>
  <nanos>783000</nanos>
  <sequence>2</sequence>
  <logger>be.be.kdg.drankproject.model.drank</logger>
  <level>SEVERE</level>
  <class>be.be.kdg.drankproject.model.Drank</class>
  <method>setBarcode</method>
  <thread>1</thread>
  <message>Sprite's barcode () mag niet leeg zijn</message>
</record>
<record>
  <date>2020-01-03T21:04:56.148709Z</date>
  <millis>1578085496148</millis>
  <nanos>709000</nanos>
  <sequence>3</sequence>
  <logger>be.be.kdg.drankproject.model.drank</logger>
  <level>SEVERE</level>
  <class>be.be.kdg.drankproject.model.Drank</class>
  <method>setVerpaktPer</method>
  <thread>1</thread>
  <message>Almdudler's verpakt per hoeveelheid (-1) mag niet negatief zijn</message>
</record>
<record>
  <date>2020-01-03T21:04:56.202625Z</date>
  <millis>1578085496202</millis>
  <nanos>625000</nanos>
  <sequence>4</sequence>
  <logger>be.be.kdg.drankproject.model.drank</logger>
  <level>FINER</level>
  <class>be.be.kdg.drankproject.model.Dranken</class>
  <method>voegToe</method>
  <thread>1</thread>
  <message>Coca Cola       (2030) 	 USA          Frisdrank toegevoegd aan de lijst</message>
</record>
<record>
  <date>2020-01-03T21:04:56.204996Z</date>
  <millis>1578085496204</millis>
  <nanos>996000</nanos>
  <sequence>5</sequence>
  <logger>be.be.kdg.drankproject.model.drank</logger>
  <level>FINER</level>
  <class>be.be.kdg.drankproject.model.Dranken</class>
  <method>voegToe</method>
  <thread>1</thread>
  <message>                (1970) 	 USA          Frisdrank toegevoegd aan de lijst</message>
</record>
<record>
  <date>2020-01-03T21:04:56.209470Z</date>
  <millis>1578085496209</millis>
  <nanos>470000</nanos>
  <sequence>6</sequence>
  <logger>be.be.kdg.drankproject.model.drank</logger>
  <level>FINER</level>
  <class>be.be.kdg.drankproject.model.Dranken</class>
  <method>voegToe</method>
  <thread>1</thread>
  <message>Sprite          (1960) 	 Belgium      Frisdrank toegevoegd aan de lijst</message>
</record>
<record>
  <date>2020-01-03T21:04:56.212598Z</date>
  <millis>1578085496212</millis>
  <nanos>598000</nanos>
  <sequence>7</sequence>
  <logger>be.be.kdg.drankproject.model.drank</logger>
  <level>FINER</level>
  <class>be.be.kdg.drankproject.model.Dranken</class>
  <method>verwijder</method>
  <thread>1</thread>
  <message>java.util.TreeMap$KeyIterator@73ad2d6 verwijderd uit de lijst</message>
</record>
</log>
<?xml version="1.0" encoding="UTF-8" standalone="no"?>
<!DOCTYPE log SYSTEM "logger.dtd">
<log>
<record>
  <date>2020-01-03T21:05:52.141189Z</date>
  <millis>1578085552141</millis>
  <nanos>189000</nanos>
  <sequence>2</sequence>
  <logger>be.be.kdg.drankproject.model.drank</logger>
  <level>SEVERE</level>
  <class>be.be.kdg.drankproject.model.Drank</class>
  <method>setBarcode</method>
  <thread>1</thread>
  <message>Sprite's barcode () mag niet leeg zijn</message>
</record>
<record>
  <date>2020-01-03T21:05:52.148079Z</date>
  <millis>1578085552148</millis>
  <nanos>79000</nanos>
  <sequence>3</sequence>
  <logger>be.be.kdg.drankproject.model.drank</logger>
  <level>SEVERE</level>
  <class>be.be.kdg.drankproject.model.Drank</class>
  <method>setVerpaktPer</method>
  <thread>1</thread>
  <message>Almdudler's verpakt per hoeveelheid (-1) mag niet negatief zijn</message>
</record>
<record>
  <date>2020-01-03T21:05:52.182978Z</date>
  <millis>1578085552182</millis>
  <nanos>978000</nanos>
  <sequence>4</sequence>
  <logger>be.be.kdg.drankproject.model.drank</logger>
  <level>FINER</level>
  <class>be.be.kdg.drankproject.model.Dranken</class>
  <method>voegToe</method>
  <thread>1</thread>
  <message>Coca Cola       (2030) 	 USA          Frisdrank toegevoegd aan de lijst</message>
</record>
<record>
  <date>2020-01-03T21:05:52.184250Z</date>
  <millis>1578085552184</millis>
  <nanos>250000</nanos>
  <sequence>5</sequence>
  <logger>be.be.kdg.drankproject.model.drank</logger>
  <level>FINER</level>
  <class>be.be.kdg.drankproject.model.Dranken</class>
  <method>voegToe</method>
  <thread>1</thread>
  <message>                (1970) 	 USA          Frisdrank toegevoegd aan de lijst</message>
</record>
<record>
  <date>2020-01-03T21:05:52.185379Z</date>
  <millis>1578085552185</millis>
  <nanos>379000</nanos>
  <sequence>6</sequence>
  <logger>be.be.kdg.drankproject.model.drank</logger>
  <level>FINER</level>
  <class>be.be.kdg.drankproject.model.Dranken</class>
  <method>voegToe</method>
  <thread>1</thread>
  <message>Sprite          (1960) 	 Belgium      Frisdrank toegevoegd aan de lijst</message>
</record>
<record>
  <date>2020-01-03T21:05:52.186210Z</date>
  <millis>1578085552186</millis>
  <nanos>210000</nanos>
  <sequence>7</sequence>
  <logger>be.be.kdg.drankproject.model.drank</logger>
  <level>FINER</level>
  <class>be.be.kdg.drankproject.model.Dranken</class>
  <method>verwijder</method>
  <thread>1</thread>
  <message>java.util.TreeMap$KeyIterator@73ad2d6 verwijderd uit de lijst</message>
</record>
</log>
<?xml version="1.0" encoding="UTF-8" standalone="no"?>
<!DOCTYPE log SYSTEM "logger.dtd">
<log>
<record>
  <date>2020-01-03T21:07:57.462456Z</date>
  <millis>1578085677462</millis>
  <nanos>456000</nanos>
  <sequence>2</sequence>
  <logger>be.be.kdg.drankproject.model.drank</logger>
  <level>SEVERE</level>
  <class>be.be.kdg.drankproject.model.Drank</class>
  <method>setBarcode</method>
  <thread>1</thread>
  <message>Sprite's barcode () mag niet leeg zijn</message>
</record>
<record>
  <date>2020-01-03T21:07:57.464825Z</date>
  <millis>1578085677464</millis>
  <nanos>825000</nanos>
  <sequence>3</sequence>
  <logger>be.be.kdg.drankproject.model.drank</logger>
  <level>SEVERE</level>
  <class>be.be.kdg.drankproject.model.Drank</class>
  <method>setVerpaktPer</method>
  <thread>1</thread>
  <message>Almdudler's verpakt per hoeveelheid (-1) mag niet negatief zijn</message>
</record>
<record>
  <date>2020-01-03T21:07:57.512772Z</date>
  <millis>1578085677512</millis>
  <nanos>772000</nanos>
  <sequence>4</sequence>
  <logger>be.be.kdg.drankproject.model.drank</logger>
  <level>FINER</level>
  <class>be.be.kdg.drankproject.model.Dranken</class>
  <method>voegToe</method>
  <thread>1</thread>
  <message>Coca Cola       (2030) 	 USA          Frisdrank toegevoegd aan de lijst</message>
</record>
<record>
  <date>2020-01-03T21:07:57.517306Z</date>
  <millis>1578085677517</millis>
  <nanos>306000</nanos>
  <sequence>5</sequence>
  <logger>be.be.kdg.drankproject.model.drank</logger>
  <level>FINER</level>
  <class>be.be.kdg.drankproject.model.Dranken</class>
  <method>voegToe</method>
  <thread>1</thread>
  <message>                (1970) 	 USA          Frisdrank toegevoegd aan de lijst</message>
</record>
<record>
  <date>2020-01-03T21:07:57.520372Z</date>
  <millis>1578085677520</millis>
  <nanos>372000</nanos>
  <sequence>6</sequence>
  <logger>be.be.kdg.drankproject.model.drank</logger>
  <level>FINER</level>
  <class>be.be.kdg.drankproject.model.Dranken</class>
  <method>voegToe</method>
  <thread>1</thread>
  <message>Sprite          (1960) 	 Belgium      Frisdrank toegevoegd aan de lijst</message>
</record>
<record>
  <date>2020-01-03T21:07:57.521599Z</date>
  <millis>1578085677521</millis>
  <nanos>599000</nanos>
  <sequence>7</sequence>
  <logger>be.be.kdg.drankproject.model.drank</logger>
  <level>FINER</level>
  <class>be.be.kdg.drankproject.model.Dranken</class>
  <method>verwijder</method>
  <thread>1</thread>
  <message>java.util.TreeMap$KeyIterator@73ad2d6 verwijderd uit de lijst</message>
</record>
</log>
<?xml version="1.0" encoding="UTF-8" standalone="no"?>
<!DOCTYPE log SYSTEM "logger.dtd">
<log>
<record>
  <date>2020-01-03T22:24:03.034503Z</date>
  <millis>1578090243034</millis>
  <nanos>503000</nanos>
  <sequence>2</sequence>
  <logger>be.be.kdg.drankproject.model.drank</logger>
  <level>SEVERE</level>
  <class>be.be.kdg.drankproject.model.Drank</class>
  <method>setBarcode</method>
  <thread>1</thread>
  <message>Sprite's barcode () mag niet leeg zijn</message>
</record>
<record>
  <date>2020-01-03T22:24:03.036341Z</date>
  <millis>1578090243036</millis>
  <nanos>341000</nanos>
  <sequence>3</sequence>
  <logger>be.be.kdg.drankproject.model.drank</logger>
  <level>SEVERE</level>
  <class>be.be.kdg.drankproject.model.Drank</class>
  <method>setVerpaktPer</method>
  <thread>1</thread>
  <message>Almdudler's verpakt per hoeveelheid (-1) mag niet negatief zijn</message>
</record>
<record>
  <date>2020-01-03T22:24:03.076306Z</date>
  <millis>1578090243076</millis>
  <nanos>306000</nanos>
  <sequence>4</sequence>
  <logger>be.be.kdg.drankproject.model.drank</logger>
  <level>FINER</level>
  <class>be.be.kdg.drankproject.model.Dranken</class>
  <method>voegToe</method>
  <thread>1</thread>
  <message>Coca Cola       (2030) 	 USA          Frisdrank toegevoegd aan de lijst</message>
</record>
<record>
  <date>2020-01-03T22:24:03.078423Z</date>
  <millis>1578090243078</millis>
  <nanos>423000</nanos>
  <sequence>5</sequence>
  <logger>be.be.kdg.drankproject.model.drank</logger>
  <level>FINER</level>
  <class>be.be.kdg.drankproject.model.Dranken</class>
  <method>voegToe</method>
  <thread>1</thread>
  <message>                (1970) 	 USA          Frisdrank toegevoegd aan de lijst</message>
</record>
<record>
  <date>2020-01-03T22:24:03.080217Z</date>
  <millis>1578090243080</millis>
  <nanos>217000</nanos>
  <sequence>6</sequence>
  <logger>be.be.kdg.drankproject.model.drank</logger>
  <level>FINER</level>
  <class>be.be.kdg.drankproject.model.Dranken</class>
  <method>voegToe</method>
  <thread>1</thread>
  <message>Sprite          (1960) 	 Belgium      Frisdrank toegevoegd aan de lijst</message>
</record>
<record>
  <date>2020-01-03T22:24:03.081367Z</date>
  <millis>1578090243081</millis>
  <nanos>367000</nanos>
  <sequence>7</sequence>
  <logger>be.be.kdg.drankproject.model.drank</logger>
  <level>FINER</level>
  <class>be.be.kdg.drankproject.model.Dranken</class>
  <method>verwijder</method>
  <thread>1</thread>
  <message>java.util.TreeMap$KeyIterator@73ad2d6 verwijderd uit de lijst</message>
</record>
</log>
<?xml version="1.0" encoding="UTF-8" standalone="no"?>
<!DOCTYPE log SYSTEM "logger.dtd">
<log>
<record>
  <date>2020-01-03T22:24:31.425118Z</date>
  <millis>1578090271425</millis>
  <nanos>118000</nanos>
  <sequence>2</sequence>
  <logger>be.be.kdg.drankproject.model.drank</logger>
  <level>SEVERE</level>
  <class>be.be.kdg.drankproject.model.Drank</class>
  <method>setBarcode</method>
  <thread>1</thread>
  <message>Sprite's barcode () mag niet leeg zijn</message>
</record>
<record>
  <date>2020-01-03T22:24:31.429961Z</date>
  <millis>1578090271429</millis>
  <nanos>961000</nanos>
  <sequence>3</sequence>
  <logger>be.be.kdg.drankproject.model.drank</logger>
  <level>SEVERE</level>
  <class>be.be.kdg.drankproject.model.Drank</class>
  <method>setVerpaktPer</method>
  <thread>1</thread>
  <message>Almdudler's verpakt per hoeveelheid (-1) mag niet negatief zijn</message>
</record>
<record>
  <date>2020-01-03T22:24:31.457717Z</date>
  <millis>1578090271457</millis>
  <nanos>717000</nanos>
  <sequence>4</sequence>
  <logger>be.be.kdg.drankproject.model.drank</logger>
  <level>FINER</level>
  <class>be.be.kdg.drankproject.model.Dranken</class>
  <method>voegToe</method>
  <thread>1</thread>
  <message>Coca Cola       (2030) 	 USA          Frisdrank toegevoegd aan de lijst</message>
</record>
<record>
  <date>2020-01-03T22:24:31.461950Z</date>
  <millis>1578090271461</millis>
  <nanos>950000</nanos>
  <sequence>5</sequence>
  <logger>be.be.kdg.drankproject.model.drank</logger>
  <level>FINER</level>
  <class>be.be.kdg.drankproject.model.Dranken</class>
  <method>voegToe</method>
  <thread>1</thread>
  <message>                (1970) 	 USA          Frisdrank toegevoegd aan de lijst</message>
</record>
<record>
  <date>2020-01-03T22:24:31.463758Z</date>
  <millis>1578090271463</millis>
  <nanos>758000</nanos>
  <sequence>6</sequence>
  <logger>be.be.kdg.drankproject.model.drank</logger>
  <level>FINER</level>
  <class>be.be.kdg.drankproject.model.Dranken</class>
  <method>voegToe</method>
  <thread>1</thread>
  <message>Sprite          (1960) 	 Belgium      Frisdrank toegevoegd aan de lijst</message>
</record>
<record>
  <date>2020-01-03T22:24:31.464930Z</date>
  <millis>1578090271464</millis>
  <nanos>930000</nanos>
  <sequence>7</sequence>
  <logger>be.be.kdg.drankproject.model.drank</logger>
  <level>FINER</level>
  <class>be.be.kdg.drankproject.model.Dranken</class>
  <method>verwijder</method>
  <thread>1</thread>
  <message>java.util.TreeMap$KeyIterator@73ad2d6 verwijderd uit de lijst</message>
</record>
</log>
<?xml version="1.0" encoding="UTF-8" standalone="no"?>
<!DOCTYPE log SYSTEM "logger.dtd">
<log>
<record>
  <date>2020-01-03T22:25:00.681490Z</date>
  <millis>1578090300681</millis>
  <nanos>490000</nanos>
  <sequence>2</sequence>
  <logger>be.be.kdg.drankproject.model.drank</logger>
  <level>SEVERE</level>
  <class>be.be.kdg.drankproject.model.Drank</class>
  <method>setBarcode</method>
  <thread>1</thread>
  <message>Sprite's barcode () mag niet leeg zijn</message>
</record>
<record>
  <date>2020-01-03T22:25:00.686909Z</date>
  <millis>1578090300686</millis>
  <nanos>909000</nanos>
  <sequence>3</sequence>
  <logger>be.be.kdg.drankproject.model.drank</logger>
  <level>SEVERE</level>
  <class>be.be.kdg.drankproject.model.Drank</class>
  <method>setVerpaktPer</method>
  <thread>1</thread>
  <message>Almdudler's verpakt per hoeveelheid (-1) mag niet negatief zijn</message>
</record>
<record>
  <date>2020-01-03T22:25:00.727041Z</date>
  <millis>1578090300727</millis>
  <nanos>41000</nanos>
  <sequence>4</sequence>
  <logger>be.be.kdg.drankproject.model.drank</logger>
  <level>FINER</level>
  <class>be.be.kdg.drankproject.model.Dranken</class>
  <method>voegToe</method>
  <thread>1</thread>
  <message>Coca Cola       (2030) 	 USA          Frisdrank toegevoegd aan de lijst</message>
</record>
<record>
  <date>2020-01-03T22:25:00.730225Z</date>
  <millis>1578090300730</millis>
  <nanos>225000</nanos>
  <sequence>5</sequence>
  <logger>be.be.kdg.drankproject.model.drank</logger>
  <level>FINER</level>
  <class>be.be.kdg.drankproject.model.Dranken</class>
  <method>voegToe</method>
  <thread>1</thread>
  <message>                (1970) 	 USA          Frisdrank toegevoegd aan de lijst</message>
</record>
<record>
  <date>2020-01-03T22:25:00.734826Z</date>
  <millis>1578090300734</millis>
  <nanos>826000</nanos>
  <sequence>6</sequence>
  <logger>be.be.kdg.drankproject.model.drank</logger>
  <level>FINER</level>
  <class>be.be.kdg.drankproject.model.Dranken</class>
  <method>voegToe</method>
  <thread>1</thread>
  <message>Sprite          (1960) 	 Belgium      Frisdrank toegevoegd aan de lijst</message>
</record>
<record>
  <date>2020-01-03T22:25:00.736913Z</date>
  <millis>1578090300736</millis>
  <nanos>913000</nanos>
  <sequence>7</sequence>
  <logger>be.be.kdg.drankproject.model.drank</logger>
  <level>FINER</level>
  <class>be.be.kdg.drankproject.model.Dranken</class>
  <method>verwijder</method>
  <thread>1</thread>
  <message>java.util.TreeMap$KeyIterator@73ad2d6 verwijderd uit de lijst</message>
</record>
</log>
<?xml version="1.0" encoding="UTF-8" standalone="no"?>
<!DOCTYPE log SYSTEM "logger.dtd">
<log>
<record>
  <date>2020-01-03T22:26:34.790155Z</date>
  <millis>1578090394790</millis>
  <nanos>155000</nanos>
  <sequence>2</sequence>
  <logger>be.be.kdg.drankproject.model.drank</logger>
  <level>SEVERE</level>
  <class>be.be.kdg.drankproject.model.Drank</class>
  <method>setBarcode</method>
  <thread>1</thread>
  <message>Sprite's barcode () mag niet leeg zijn</message>
</record>
<record>
  <date>2020-01-03T22:26:34.795244Z</date>
  <millis>1578090394795</millis>
  <nanos>244000</nanos>
  <sequence>3</sequence>
  <logger>be.be.kdg.drankproject.model.drank</logger>
  <level>SEVERE</level>
  <class>be.be.kdg.drankproject.model.Drank</class>
  <method>setVerpaktPer</method>
  <thread>1</thread>
  <message>Almdudler's verpakt per hoeveelheid (-1) mag niet negatief zijn</message>
</record>
<record>
  <date>2020-01-03T22:26:34.825671Z</date>
  <millis>1578090394825</millis>
  <nanos>671000</nanos>
  <sequence>4</sequence>
  <logger>be.be.kdg.drankproject.model.drank</logger>
  <level>FINER</level>
  <class>be.be.kdg.drankproject.model.Dranken</class>
  <method>voegToe</method>
  <thread>1</thread>
  <message>Coca Cola       (2030) 	 USA          Frisdrank toegevoegd aan de lijst</message>
</record>
<record>
  <date>2020-01-03T22:26:34.827448Z</date>
  <millis>1578090394827</millis>
  <nanos>448000</nanos>
  <sequence>5</sequence>
  <logger>be.be.kdg.drankproject.model.drank</logger>
  <level>FINER</level>
  <class>be.be.kdg.drankproject.model.Dranken</class>
  <method>voegToe</method>
  <thread>1</thread>
  <message>                (1970) 	 USA          Frisdrank toegevoegd aan de lijst</message>
</record>
<record>
  <date>2020-01-03T22:26:34.828620Z</date>
  <millis>1578090394828</millis>
  <nanos>620000</nanos>
  <sequence>6</sequence>
  <logger>be.be.kdg.drankproject.model.drank</logger>
  <level>FINER</level>
  <class>be.be.kdg.drankproject.model.Dranken</class>
  <method>voegToe</method>
  <thread>1</thread>
  <message>Sprite          (1960) 	 Belgium      Frisdrank toegevoegd aan de lijst</message>
</record>
<record>
  <date>2020-01-03T22:26:34.829545Z</date>
  <millis>1578090394829</millis>
  <nanos>545000</nanos>
  <sequence>7</sequence>
  <logger>be.be.kdg.drankproject.model.drank</logger>
  <level>FINER</level>
  <class>be.be.kdg.drankproject.model.Dranken</class>
  <method>verwijder</method>
  <thread>1</thread>
  <message>java.util.TreeMap$KeyIterator@73ad2d6 verwijderd uit de lijst</message>
</record>
</log>
<?xml version="1.0" encoding="UTF-8" standalone="no"?>
<!DOCTYPE log SYSTEM "logger.dtd">
<log>
<record>
  <date>2020-01-03T22:28:52.045850Z</date>
  <millis>1578090532045</millis>
  <nanos>850000</nanos>
  <sequence>2</sequence>
  <logger>be.be.kdg.drankproject.model.drank</logger>
  <level>SEVERE</level>
  <class>be.be.kdg.drankproject.model.Drank</class>
  <method>setBarcode</method>
  <thread>1</thread>
  <message>Sprite's barcode () mag niet leeg zijn</message>
</record>
<record>
  <date>2020-01-03T22:28:52.049057Z</date>
  <millis>1578090532049</millis>
  <nanos>57000</nanos>
  <sequence>3</sequence>
  <logger>be.be.kdg.drankproject.model.drank</logger>
  <level>SEVERE</level>
  <class>be.be.kdg.drankproject.model.Drank</class>
  <method>setVerpaktPer</method>
  <thread>1</thread>
  <message>Almdudler's verpakt per hoeveelheid (-1) mag niet negatief zijn</message>
</record>
<record>
  <date>2020-01-03T22:28:52.098324Z</date>
  <millis>1578090532098</millis>
  <nanos>324000</nanos>
  <sequence>4</sequence>
  <logger>be.be.kdg.drankproject.model.drank</logger>
  <level>FINER</level>
  <class>be.be.kdg.drankproject.model.Dranken</class>
  <method>voegToe</method>
  <thread>1</thread>
  <message>Coca Cola       (2030) 	 USA          Frisdrank toegevoegd aan de lijst</message>
</record>
<record>
  <date>2020-01-03T22:28:52.100529Z</date>
  <millis>1578090532100</millis>
  <nanos>529000</nanos>
  <sequence>5</sequence>
  <logger>be.be.kdg.drankproject.model.drank</logger>
  <level>FINER</level>
  <class>be.be.kdg.drankproject.model.Dranken</class>
  <method>voegToe</method>
  <thread>1</thread>
  <message>                (1970) 	 USA          Frisdrank toegevoegd aan de lijst</message>
</record>
<record>
  <date>2020-01-03T22:28:52.105013Z</date>
  <millis>1578090532105</millis>
  <nanos>13000</nanos>
  <sequence>6</sequence>
  <logger>be.be.kdg.drankproject.model.drank</logger>
  <level>FINER</level>
  <class>be.be.kdg.drankproject.model.Dranken</class>
  <method>voegToe</method>
  <thread>1</thread>
  <message>Sprite          (1960) 	 Belgium      Frisdrank toegevoegd aan de lijst</message>
</record>
<record>
  <date>2020-01-03T22:28:52.108577Z</date>
  <millis>1578090532108</millis>
  <nanos>577000</nanos>
  <sequence>7</sequence>
  <logger>be.be.kdg.drankproject.model.drank</logger>
  <level>FINER</level>
  <class>be.be.kdg.drankproject.model.Dranken</class>
  <method>verwijder</method>
  <thread>1</thread>
  <message>java.util.TreeMap$KeyIterator@73ad2d6 verwijderd uit de lijst</message>
</record>
</log>
<?xml version="1.0" encoding="UTF-8" standalone="no"?>
<!DOCTYPE log SYSTEM "logger.dtd">
<log>
<record>
  <date>2020-01-03T22:32:27.955186Z</date>
  <millis>1578090747955</millis>
  <nanos>186000</nanos>
  <sequence>2</sequence>
  <logger>be.be.kdg.drankproject.model.drank</logger>
  <level>SEVERE</level>
  <class>be.be.kdg.drankproject.model.Drank</class>
  <method>setBarcode</method>
  <thread>1</thread>
  <message>Sprite's barcode () mag niet leeg zijn</message>
</record>
<record>
  <date>2020-01-03T22:32:27.956588Z</date>
  <millis>1578090747956</millis>
  <nanos>588000</nanos>
  <sequence>3</sequence>
  <logger>be.be.kdg.drankproject.model.drank</logger>
  <level>SEVERE</level>
  <class>be.be.kdg.drankproject.model.Drank</class>
  <method>setVerpaktPer</method>
  <thread>1</thread>
  <message>Almdudler's verpakt per hoeveelheid (-1) mag niet negatief zijn</message>
</record>
<record>
  <date>2020-01-03T22:32:28.061975Z</date>
  <millis>1578090748061</millis>
  <nanos>975000</nanos>
  <sequence>4</sequence>
  <logger>be.be.kdg.drankproject.model.drank</logger>
  <level>FINER</level>
  <class>be.be.kdg.drankproject.model.Dranken</class>
  <method>voegToe</method>
  <thread>1</thread>
  <message>Coca Cola       (2030) 	 USA          Frisdrank toegevoegd aan de lijst</message>
</record>
<record>
  <date>2020-01-03T22:32:28.064495Z</date>
  <millis>1578090748064</millis>
  <nanos>495000</nanos>
  <sequence>5</sequence>
  <logger>be.be.kdg.drankproject.model.drank</logger>
  <level>FINER</level>
  <class>be.be.kdg.drankproject.model.Dranken</class>
  <method>voegToe</method>
  <thread>1</thread>
  <message>                (1970) 	 USA          Frisdrank toegevoegd aan de lijst</message>
</record>
<record>
  <date>2020-01-03T22:32:28.067236Z</date>
  <millis>1578090748067</millis>
  <nanos>236000</nanos>
  <sequence>6</sequence>
  <logger>be.be.kdg.drankproject.model.drank</logger>
  <level>FINER</level>
  <class>be.be.kdg.drankproject.model.Dranken</class>
  <method>voegToe</method>
  <thread>1</thread>
  <message>Sprite          (1960) 	 Belgium      Frisdrank toegevoegd aan de lijst</message>
</record>
<record>
  <date>2020-01-03T22:32:28.069338Z</date>
  <millis>1578090748069</millis>
  <nanos>338000</nanos>
  <sequence>7</sequence>
  <logger>be.be.kdg.drankproject.model.drank</logger>
  <level>FINER</level>
  <class>be.be.kdg.drankproject.model.Dranken</class>
  <method>verwijder</method>
  <thread>1</thread>
  <message>java.util.TreeMap$KeyIterator@73ad2d6 verwijderd uit de lijst</message>
</record>
</log>
<?xml version="1.0" encoding="UTF-8" standalone="no"?>
<!DOCTYPE log SYSTEM "logger.dtd">
<log>
<record>
  <date>2020-01-03T22:34:07.442136Z</date>
  <millis>1578090847442</millis>
  <nanos>136000</nanos>
  <sequence>2</sequence>
  <logger>be.be.kdg.drankproject.model.drank</logger>
  <level>SEVERE</level>
  <class>be.be.kdg.drankproject.model.Drank</class>
  <method>setBarcode</method>
  <thread>1</thread>
  <message>Sprite's barcode () mag niet leeg zijn</message>
</record>
<record>
  <date>2020-01-03T22:34:07.444046Z</date>
  <millis>1578090847444</millis>
  <nanos>46000</nanos>
  <sequence>3</sequence>
  <logger>be.be.kdg.drankproject.model.drank</logger>
  <level>SEVERE</level>
  <class>be.be.kdg.drankproject.model.Drank</class>
  <method>setVerpaktPer</method>
  <thread>1</thread>
  <message>Almdudler's verpakt per hoeveelheid (-1) mag niet negatief zijn</message>
</record>
<record>
  <date>2020-01-03T22:34:07.475057Z</date>
  <millis>1578090847475</millis>
  <nanos>57000</nanos>
  <sequence>4</sequence>
  <logger>be.be.kdg.drankproject.model.drank</logger>
  <level>FINER</level>
  <class>be.be.kdg.drankproject.model.Dranken</class>
  <method>voegToe</method>
  <thread>1</thread>
  <message>Coca Cola       (2030) 	 USA          Frisdrank toegevoegd aan de lijst</message>
</record>
<record>
  <date>2020-01-03T22:34:07.476610Z</date>
  <millis>1578090847476</millis>
  <nanos>610000</nanos>
  <sequence>5</sequence>
  <logger>be.be.kdg.drankproject.model.drank</logger>
  <level>FINER</level>
  <class>be.be.kdg.drankproject.model.Dranken</class>
  <method>voegToe</method>
  <thread>1</thread>
  <message>                (1970) 	 USA          Frisdrank toegevoegd aan de lijst</message>
</record>
<record>
  <date>2020-01-03T22:34:07.477866Z</date>
  <millis>1578090847477</millis>
  <nanos>866000</nanos>
  <sequence>6</sequence>
  <logger>be.be.kdg.drankproject.model.drank</logger>
  <level>FINER</level>
  <class>be.be.kdg.drankproject.model.Dranken</class>
  <method>voegToe</method>
  <thread>1</thread>
  <message>Sprite          (1960) 	 Belgium      Frisdrank toegevoegd aan de lijst</message>
</record>
<record>
  <date>2020-01-03T22:34:07.478763Z</date>
  <millis>1578090847478</millis>
  <nanos>763000</nanos>
  <sequence>7</sequence>
  <logger>be.be.kdg.drankproject.model.drank</logger>
  <level>FINER</level>
  <class>be.be.kdg.drankproject.model.Dranken</class>
  <method>verwijder</method>
  <thread>1</thread>
  <message>java.util.TreeMap$KeyIterator@73ad2d6 verwijderd uit de lijst</message>
</record>
</log>
<?xml version="1.0" encoding="UTF-8" standalone="no"?>
<!DOCTYPE log SYSTEM "logger.dtd">
<log>
<record>
  <date>2020-01-03T22:37:15.899987Z</date>
  <millis>1578091035899</millis>
  <nanos>987000</nanos>
  <sequence>2</sequence>
  <logger>be.be.kdg.drankproject.model.drank</logger>
  <level>SEVERE</level>
  <class>be.be.kdg.drankproject.model.Drank</class>
  <method>setBarcode</method>
  <thread>1</thread>
  <message>Sprite's barcode () mag niet leeg zijn</message>
</record>
<record>
  <date>2020-01-03T22:37:15.901662Z</date>
  <millis>1578091035901</millis>
  <nanos>662000</nanos>
  <sequence>3</sequence>
  <logger>be.be.kdg.drankproject.model.drank</logger>
  <level>SEVERE</level>
  <class>be.be.kdg.drankproject.model.Drank</class>
  <method>setVerpaktPer</method>
  <thread>1</thread>
  <message>Almdudler's verpakt per hoeveelheid (-1) mag niet negatief zijn</message>
</record>
<record>
  <date>2020-01-03T22:37:15.931117Z</date>
  <millis>1578091035931</millis>
  <nanos>117000</nanos>
  <sequence>4</sequence>
  <logger>be.be.kdg.drankproject.model.drank</logger>
  <level>FINER</level>
  <class>be.be.kdg.drankproject.model.Dranken</class>
  <method>voegToe</method>
  <thread>1</thread>
  <message>Coca Cola       (2030) 	 USA          Frisdrank toegevoegd aan de lijst</message>
</record>
<record>
  <date>2020-01-03T22:37:15.932571Z</date>
  <millis>1578091035932</millis>
  <nanos>571000</nanos>
  <sequence>5</sequence>
  <logger>be.be.kdg.drankproject.model.drank</logger>
  <level>FINER</level>
  <class>be.be.kdg.drankproject.model.Dranken</class>
  <method>voegToe</method>
  <thread>1</thread>
  <message>                (1970) 	 USA          Frisdrank toegevoegd aan de lijst</message>
</record>
<record>
  <date>2020-01-03T22:37:15.933517Z</date>
  <millis>1578091035933</millis>
  <nanos>517000</nanos>
  <sequence>6</sequence>
  <logger>be.be.kdg.drankproject.model.drank</logger>
  <level>FINER</level>
  <class>be.be.kdg.drankproject.model.Dranken</class>
  <method>voegToe</method>
  <thread>1</thread>
  <message>Sprite          (1960) 	 Belgium      Frisdrank toegevoegd aan de lijst</message>
</record>
<record>
  <date>2020-01-03T22:37:15.934282Z</date>
  <millis>1578091035934</millis>
  <nanos>282000</nanos>
  <sequence>7</sequence>
  <logger>be.be.kdg.drankproject.model.drank</logger>
  <level>FINER</level>
  <class>be.be.kdg.drankproject.model.Dranken</class>
  <method>verwijder</method>
  <thread>1</thread>
  <message>java.util.TreeMap$KeyIterator@73ad2d6 verwijderd uit de lijst</message>
</record>
</log>
<?xml version="1.0" encoding="UTF-8" standalone="no"?>
<!DOCTYPE log SYSTEM "logger.dtd">
<log>
<record>
  <date>2020-01-03T22:38:44.201360Z</date>
  <millis>1578091124201</millis>
  <nanos>360000</nanos>
  <sequence>2</sequence>
  <logger>be.be.kdg.drankproject.model.drank</logger>
  <level>SEVERE</level>
  <class>be.be.kdg.drankproject.model.Drank</class>
  <method>setBarcode</method>
  <thread>1</thread>
  <message>Sprite's barcode () mag niet leeg zijn</message>
</record>
<record>
  <date>2020-01-03T22:38:44.202949Z</date>
  <millis>1578091124202</millis>
  <nanos>949000</nanos>
  <sequence>3</sequence>
  <logger>be.be.kdg.drankproject.model.drank</logger>
  <level>SEVERE</level>
  <class>be.be.kdg.drankproject.model.Drank</class>
  <method>setVerpaktPer</method>
  <thread>1</thread>
  <message>Almdudler's verpakt per hoeveelheid (-1) mag niet negatief zijn</message>
</record>
<record>
  <date>2020-01-03T22:38:44.229732Z</date>
  <millis>1578091124229</millis>
  <nanos>732000</nanos>
  <sequence>4</sequence>
  <logger>be.be.kdg.drankproject.model.drank</logger>
  <level>FINER</level>
  <class>be.be.kdg.drankproject.model.Dranken</class>
  <method>voegToe</method>
  <thread>1</thread>
  <message>Coca Cola       (2030) 	 USA          Frisdrank toegevoegd aan de lijst</message>
</record>
<record>
  <date>2020-01-03T22:38:44.230958Z</date>
  <millis>1578091124230</millis>
  <nanos>958000</nanos>
  <sequence>5</sequence>
  <logger>be.be.kdg.drankproject.model.drank</logger>
  <level>FINER</level>
  <class>be.be.kdg.drankproject.model.Dranken</class>
  <method>voegToe</method>
  <thread>1</thread>
  <message>                (1970) 	 USA          Frisdrank toegevoegd aan de lijst</message>
</record>
<record>
  <date>2020-01-03T22:38:44.231929Z</date>
  <millis>1578091124231</millis>
  <nanos>929000</nanos>
  <sequence>6</sequence>
  <logger>be.be.kdg.drankproject.model.drank</logger>
  <level>FINER</level>
  <class>be.be.kdg.drankproject.model.Dranken</class>
  <method>voegToe</method>
  <thread>1</thread>
  <message>Sprite          (1960) 	 Belgium      Frisdrank toegevoegd aan de lijst</message>
</record>
<record>
  <date>2020-01-03T22:38:44.232674Z</date>
  <millis>1578091124232</millis>
  <nanos>674000</nanos>
  <sequence>7</sequence>
  <logger>be.be.kdg.drankproject.model.drank</logger>
  <level>FINER</level>
  <class>be.be.kdg.drankproject.model.Dranken</class>
  <method>verwijder</method>
  <thread>1</thread>
  <message>java.util.TreeMap$KeyIterator@73ad2d6 verwijderd uit de lijst</message>
</record>
</log>
<?xml version="1.0" encoding="UTF-8" standalone="no"?>
<!DOCTYPE log SYSTEM "logger.dtd">
<log>
<record>
  <date>2020-01-03T22:41:20.730682Z</date>
  <millis>1578091280730</millis>
  <nanos>682000</nanos>
  <sequence>2</sequence>
  <logger>be.be.kdg.drankproject.model.drank</logger>
  <level>SEVERE</level>
  <class>be.be.kdg.drankproject.model.Drank</class>
  <method>setBarcode</method>
  <thread>1</thread>
  <message>Sprite's barcode () mag niet leeg zijn</message>
</record>
<record>
  <date>2020-01-03T22:41:20.732382Z</date>
  <millis>1578091280732</millis>
  <nanos>382000</nanos>
  <sequence>3</sequence>
  <logger>be.be.kdg.drankproject.model.drank</logger>
  <level>SEVERE</level>
  <class>be.be.kdg.drankproject.model.Drank</class>
  <method>setVerpaktPer</method>
  <thread>1</thread>
  <message>Almdudler's verpakt per hoeveelheid (-1) mag niet negatief zijn</message>
</record>
<record>
  <date>2020-01-03T22:41:20.763859Z</date>
  <millis>1578091280763</millis>
  <nanos>859000</nanos>
  <sequence>4</sequence>
  <logger>be.be.kdg.drankproject.model.drank</logger>
  <level>FINER</level>
  <class>be.be.kdg.drankproject.model.Dranken</class>
  <method>voegToe</method>
  <thread>1</thread>
  <message>Coca Cola       (2030) 	 USA          Frisdrank toegevoegd aan de lijst</message>
</record>
<record>
  <date>2020-01-03T22:41:20.765168Z</date>
  <millis>1578091280765</millis>
  <nanos>168000</nanos>
  <sequence>5</sequence>
  <logger>be.be.kdg.drankproject.model.drank</logger>
  <level>FINER</level>
  <class>be.be.kdg.drankproject.model.Dranken</class>
  <method>voegToe</method>
  <thread>1</thread>
  <message>                (1970) 	 USA          Frisdrank toegevoegd aan de lijst</message>
</record>
<record>
  <date>2020-01-03T22:41:20.766797Z</date>
  <millis>1578091280766</millis>
  <nanos>797000</nanos>
  <sequence>6</sequence>
  <logger>be.be.kdg.drankproject.model.drank</logger>
  <level>FINER</level>
  <class>be.be.kdg.drankproject.model.Dranken</class>
  <method>voegToe</method>
  <thread>1</thread>
  <message>Sprite          (1960) 	 Belgium      Frisdrank toegevoegd aan de lijst</message>
</record>
<record>
  <date>2020-01-03T22:41:20.767849Z</date>
  <millis>1578091280767</millis>
  <nanos>849000</nanos>
  <sequence>7</sequence>
  <logger>be.be.kdg.drankproject.model.drank</logger>
  <level>FINER</level>
  <class>be.be.kdg.drankproject.model.Dranken</class>
  <method>verwijder</method>
  <thread>1</thread>
  <message>java.util.TreeMap$KeyIterator@73ad2d6 verwijderd uit de lijst</message>
</record>
</log>
<?xml version="1.0" encoding="UTF-8" standalone="no"?>
<!DOCTYPE log SYSTEM "logger.dtd">
<log>
<record>
  <date>2020-01-03T22:43:40.301945Z</date>
  <millis>1578091420301</millis>
  <nanos>945000</nanos>
  <sequence>2</sequence>
  <logger>be.be.kdg.drankproject.model.drank</logger>
  <level>SEVERE</level>
  <class>be.be.kdg.drankproject.model.Drank</class>
  <method>setBarcode</method>
  <thread>1</thread>
  <message>Sprite's barcode () mag niet leeg zijn</message>
</record>
<record>
  <date>2020-01-03T22:43:40.303242Z</date>
  <millis>1578091420303</millis>
  <nanos>242000</nanos>
  <sequence>3</sequence>
  <logger>be.be.kdg.drankproject.model.drank</logger>
  <level>SEVERE</level>
  <class>be.be.kdg.drankproject.model.Drank</class>
  <method>setVerpaktPer</method>
  <thread>1</thread>
  <message>Almdudler's verpakt per hoeveelheid (-1) mag niet negatief zijn</message>
</record>
<record>
  <date>2020-01-03T22:43:40.342626Z</date>
  <millis>1578091420342</millis>
  <nanos>626000</nanos>
  <sequence>4</sequence>
  <logger>be.be.kdg.drankproject.model.drank</logger>
  <level>FINER</level>
  <class>be.be.kdg.drankproject.model.Dranken</class>
  <method>voegToe</method>
  <thread>1</thread>
  <message>Coca Cola       (2030) 	 USA          Frisdrank toegevoegd aan de lijst</message>
</record>
<record>
  <date>2020-01-03T22:43:40.346051Z</date>
  <millis>1578091420346</millis>
  <nanos>51000</nanos>
  <sequence>5</sequence>
  <logger>be.be.kdg.drankproject.model.drank</logger>
  <level>FINER</level>
  <class>be.be.kdg.drankproject.model.Dranken</class>
  <method>voegToe</method>
  <thread>1</thread>
  <message>                (1970) 	 USA          Frisdrank toegevoegd aan de lijst</message>
</record>
<record>
  <date>2020-01-03T22:43:40.348960Z</date>
  <millis>1578091420348</millis>
  <nanos>960000</nanos>
  <sequence>6</sequence>
  <logger>be.be.kdg.drankproject.model.drank</logger>
  <level>FINER</level>
  <class>be.be.kdg.drankproject.model.Dranken</class>
  <method>voegToe</method>
  <thread>1</thread>
  <message>Sprite          (1960) 	 Belgium      Frisdrank toegevoegd aan de lijst</message>
</record>
<record>
  <date>2020-01-03T22:43:40.351627Z</date>
  <millis>1578091420351</millis>
  <nanos>627000</nanos>
  <sequence>7</sequence>
  <logger>be.be.kdg.drankproject.model.drank</logger>
  <level>FINER</level>
  <class>be.be.kdg.drankproject.model.Dranken</class>
  <method>verwijder</method>
  <thread>1</thread>
  <message>java.util.TreeMap$KeyIterator@73ad2d6 verwijderd uit de lijst</message>
</record>
</log>
<?xml version="1.0" encoding="UTF-8" standalone="no"?>
<!DOCTYPE log SYSTEM "logger.dtd">
<log>
<record>
  <date>2020-01-05T21:20:45.902808Z</date>
  <millis>1578259245902</millis>
  <nanos>808000</nanos>
  <sequence>2</sequence>
  <logger>be.be.kdg.drankproject.model.drank</logger>
  <level>SEVERE</level>
  <class>be.kdg.drankproject.model.Drank</class>
  <method>setBarcode</method>
  <thread>1</thread>
  <message>Sprite's barcode () mag niet leeg zijn</message>
</record>
<record>
  <date>2020-01-05T21:20:45.905717Z</date>
  <millis>1578259245905</millis>
  <nanos>717000</nanos>
  <sequence>3</sequence>
  <logger>be.be.kdg.drankproject.model.drank</logger>
  <level>SEVERE</level>
  <class>be.kdg.drankproject.model.Drank</class>
  <method>setVerpaktPer</method>
  <thread>1</thread>
  <message>Almdudler's verpakt per hoeveelheid (-1) mag niet negatief zijn</message>
</record>
<record>
  <date>2020-01-05T21:20:45.948102Z</date>
  <millis>1578259245948</millis>
  <nanos>102000</nanos>
  <sequence>4</sequence>
  <logger>be.be.kdg.drankproject.model.drank</logger>
  <level>FINER</level>
  <class>be.kdg.drankproject.model.Dranken</class>
  <method>voegToe</method>
  <thread>1</thread>
  <message>Coca Cola       (2030) 	 USA          Frisdrank toegevoegd aan de lijst</message>
</record>
<record>
  <date>2020-01-05T21:20:45.949998Z</date>
  <millis>1578259245949</millis>
  <nanos>998000</nanos>
  <sequence>5</sequence>
  <logger>be.be.kdg.drankproject.model.drank</logger>
  <level>FINER</level>
  <class>be.kdg.drankproject.model.Dranken</class>
  <method>voegToe</method>
  <thread>1</thread>
  <message>                (1970) 	 USA          Frisdrank toegevoegd aan de lijst</message>
</record>
<record>
  <date>2020-01-05T21:20:45.951958Z</date>
  <millis>1578259245951</millis>
  <nanos>958000</nanos>
  <sequence>6</sequence>
  <logger>be.be.kdg.drankproject.model.drank</logger>
  <level>FINER</level>
  <class>be.kdg.drankproject.model.Dranken</class>
  <method>voegToe</method>
  <thread>1</thread>
  <message>Sprite          (1960) 	 Belgium      Frisdrank toegevoegd aan de lijst</message>
</record>
<record>
  <date>2020-01-05T21:20:45.953710Z</date>
  <millis>1578259245953</millis>
  <nanos>710000</nanos>
  <sequence>7</sequence>
  <logger>be.be.kdg.drankproject.model.drank</logger>
  <level>FINER</level>
  <class>be.kdg.drankproject.model.Dranken</class>
  <method>verwijder</method>
  <thread>1</thread>
  <message>java.util.TreeMap$KeyIterator@73ad2d6 verwijderd uit de lijst</message>
</record>
</log>
<?xml version="1.0" encoding="UTF-8" standalone="no"?>
<!DOCTYPE log SYSTEM "logger.dtd">
<log>
<record>
  <date>2020-01-05T21:21:04.031865Z</date>
  <millis>1578259264031</millis>
  <nanos>865000</nanos>
  <sequence>2</sequence>
  <logger>be.be.kdg.drankproject.model.drank</logger>
  <level>SEVERE</level>
  <class>be.kdg.drankproject.model.Drank</class>
  <method>setBarcode</method>
  <thread>1</thread>
  <message>Sprite's barcode () mag niet leeg zijn</message>
</record>
<record>
  <date>2020-01-05T21:21:04.034141Z</date>
  <millis>1578259264034</millis>
  <nanos>141000</nanos>
  <sequence>3</sequence>
  <logger>be.be.kdg.drankproject.model.drank</logger>
  <level>SEVERE</level>
  <class>be.kdg.drankproject.model.Drank</class>
  <method>setVerpaktPer</method>
  <thread>1</thread>
  <message>Almdudler's verpakt per hoeveelheid (-1) mag niet negatief zijn</message>
</record>
<record>
  <date>2020-01-05T21:21:04.067217Z</date>
  <millis>1578259264067</millis>
  <nanos>217000</nanos>
  <sequence>4</sequence>
  <logger>be.be.kdg.drankproject.model.drank</logger>
  <level>FINER</level>
  <class>be.kdg.drankproject.model.Dranken</class>
  <method>voegToe</method>
  <thread>1</thread>
  <message>Coca Cola       (2030) 	 USA          Frisdrank toegevoegd aan de lijst</message>
</record>
<record>
  <date>2020-01-05T21:21:04.068679Z</date>
  <millis>1578259264068</millis>
  <nanos>679000</nanos>
  <sequence>5</sequence>
  <logger>be.be.kdg.drankproject.model.drank</logger>
  <level>FINER</level>
  <class>be.kdg.drankproject.model.Dranken</class>
  <method>voegToe</method>
  <thread>1</thread>
  <message>                (1970) 	 USA          Frisdrank toegevoegd aan de lijst</message>
</record>
<record>
  <date>2020-01-05T21:21:04.070254Z</date>
  <millis>1578259264070</millis>
  <nanos>254000</nanos>
  <sequence>6</sequence>
  <logger>be.be.kdg.drankproject.model.drank</logger>
  <level>FINER</level>
  <class>be.kdg.drankproject.model.Dranken</class>
  <method>voegToe</method>
  <thread>1</thread>
  <message>Sprite          (1960) 	 Belgium      Frisdrank toegevoegd aan de lijst</message>
</record>
<record>
  <date>2020-01-05T21:21:04.071426Z</date>
  <millis>1578259264071</millis>
  <nanos>426000</nanos>
  <sequence>7</sequence>
  <logger>be.be.kdg.drankproject.model.drank</logger>
  <level>FINER</level>
  <class>be.kdg.drankproject.model.Dranken</class>
  <method>verwijder</method>
  <thread>1</thread>
  <message>java.util.TreeMap$KeyIterator@73ad2d6 verwijderd uit de lijst</message>
</record>
</log>
<?xml version="1.0" encoding="UTF-8" standalone="no"?>
<!DOCTYPE log SYSTEM "logger.dtd">
<log>
<record>
  <date>2020-01-11T17:55:59.140028Z</date>
  <millis>1578765359140</millis>
  <nanos>28000</nanos>
  <sequence>2</sequence>
  <logger>be.be.kdg.drankproject.model.drank</logger>
  <level>SEVERE</level>
  <class>be.kdg.drankproject.model.Drank</class>
  <method>setBarcode</method>
  <thread>1</thread>
  <message>Sprite's barcode () mag niet leeg zijn</message>
</record>
<record>
  <date>2020-01-11T17:55:59.147946Z</date>
  <millis>1578765359147</millis>
  <nanos>946000</nanos>
  <sequence>3</sequence>
  <logger>be.be.kdg.drankproject.model.drank</logger>
  <level>SEVERE</level>
  <class>be.kdg.drankproject.model.Drank</class>
  <method>setVerpaktPer</method>
  <thread>1</thread>
  <message>Almdudler's verpakt per hoeveelheid (-1) mag niet negatief zijn</message>
</record>
<record>
  <date>2020-01-11T17:55:59.233654Z</date>
  <millis>1578765359233</millis>
  <nanos>654000</nanos>
  <sequence>4</sequence>
  <logger>be.be.kdg.drankproject.model.drank</logger>
  <level>FINER</level>
  <class>be.kdg.drankproject.model.Dranken</class>
  <method>voegToe</method>
  <thread>1</thread>
  <message>Coca Cola       (2030) 	 USA          Frisdrank toegevoegd aan de lijst</message>
</record>
<record>
  <date>2020-01-11T17:55:59.236277Z</date>
  <millis>1578765359236</millis>
  <nanos>277000</nanos>
  <sequence>5</sequence>
  <logger>be.be.kdg.drankproject.model.drank</logger>
  <level>FINER</level>
  <class>be.kdg.drankproject.model.Dranken</class>
  <method>voegToe</method>
  <thread>1</thread>
  <message>                (1970) 	 USA          Frisdrank toegevoegd aan de lijst</message>
</record>
<record>
  <date>2020-01-11T17:55:59.248759Z</date>
  <millis>1578765359248</millis>
  <nanos>759000</nanos>
  <sequence>6</sequence>
  <logger>be.be.kdg.drankproject.model.drank</logger>
  <level>FINER</level>
  <class>be.kdg.drankproject.model.Dranken</class>
  <method>voegToe</method>
  <thread>1</thread>
  <message>Sprite          (1960) 	 Belgium      Frisdrank toegevoegd aan de lijst</message>
</record>
<record>
  <date>2020-01-11T17:55:59.253094Z</date>
  <millis>1578765359253</millis>
  <nanos>94000</nanos>
  <sequence>7</sequence>
  <logger>be.be.kdg.drankproject.model.drank</logger>
  <level>FINER</level>
  <class>be.kdg.drankproject.model.Dranken</class>
  <method>verwijder</method>
  <thread>1</thread>
  <message>java.util.TreeMap$KeyIterator@59ec2012 verwijderd uit de lijst</message>
</record>
</log>
